DATE, DISCHARGE
1985-04-03 , 6370.0
1985-04-04 , 6320.0
1985-04-05 , 6290.0
1985-04-06 , 6350.0
1985-04-07 , 6920.0
1985-04-08 , 7780.0
1985-04-09 , 8070.0
1985-04-10 , 8070.0
1985-04-11 , 8270.0
1985-04-12 , 8800.0
1985-04-13 , 9160.0
1985-04-14 , 9220.0
1985-04-15 , 9060.0
1985-04-16 , 8960.0
1985-04-17 , 9220.0
1985-04-18 , 9840.0
1985-04-19 , 10300.0
1985-04-20 , 10300.0
1985-04-21 , 10400.0
1985-04-22 , 10600.0
1985-04-23 , 10600.0
1985-04-24 , 11500.0
1985-04-25 , 11200.0
1985-04-26 , 11000.0
1985-04-27 , 10900.0
1985-04-28 , 10900.0
1985-04-29 , 11000.0
1985-04-30 , 11200.0
1985-05-01 , 12300.0
1985-05-02 , 13600.0
1985-05-03 , 13700.0
1985-05-04 , 13200.0
1985-05-05 , 12500.0
1985-05-06 , 12000.0
1985-05-07 , 11800.0
1985-05-08 , 11600.0
1985-05-09 , 11600.0
1985-05-10 , 11600.0
1985-05-11 , 12000.0
1985-05-12 , 12400.0
1985-05-13 , 12500.0
1985-05-14 , 11800.0
1985-05-15 , 10800.0
1985-05-16 , 10200.0
1985-05-17 , 9790.0
1985-05-18 , 9720.0
1985-05-19 , 9630.0
1985-05-20 , 9570.0
1985-05-21 , 9570.0
1985-05-22 , 9480.0
1985-05-23 , 9480.0
1985-05-24 , 9430.0
1985-05-25 , 9510.0
1985-05-26 , 8890.0
1985-05-27 , 8470.0
1985-05-28 , 8200.0
1985-05-29 , 8160.0
1985-05-30 , 9240.0
1985-05-31 , 11200.0
1985-06-01 , 14600.0
1985-06-02 , 20900.0
1985-06-03 , 26800.0
1985-06-04 , 33900.0
1985-06-05 , 38700.0
1985-06-06 , 40500.0
1985-06-07 , 40400.0
1985-06-08 , 38000.0
1985-06-09 , 34900.0
1985-06-10 , 31900.0
1985-06-11 , 29600.0
1985-06-12 , 27800.0
1985-06-13 , 26900.0
1985-06-14 , 26900.0
1985-06-15 , 27000.0
1985-06-16 , 28300.0
1985-06-17 , 28100.0
1985-06-18 , 27400.0
1985-06-19 , 28600.0
1985-06-20 , 29800.0
1985-06-21 , 32700.0
1985-06-22 , 34700.0
1985-06-23 , 34700.0
1985-06-24 , 36200.0
1985-06-25 , 35800.0
1985-06-26 , 34700.0
1985-06-27 , 33700.0
1985-06-28 , 34500.0
1985-06-29 , 37800.0
1985-06-30 , 39700.0
1985-07-01 , 40500.0
1985-07-02 , 43400.0
1985-07-03 , 45900.0
1985-07-04 , 46800.0
1985-07-05 , 46300.0
1985-07-06 , 46000.0
1985-07-07 , 46600.0
1985-07-08 , 49300.0
1985-07-09 , 49300.0
1985-07-10 , 50600.0
1985-07-11 , 53300.0
1985-07-12 , 54900.0
1985-07-13 , 56300.0
1985-07-14 , 57600.0
1985-07-15 , 58900.0
1985-07-16 , 58600.0
1985-07-17 , 57400.0
1985-07-18 , 56000.0
1985-07-19 , 54000.0
1985-07-20 , 52400.0
1985-07-21 , 51000.0
1985-07-22 , 50500.0
1985-07-23 , 50500.0
1985-07-24 , 53400.0
1985-07-25 , 56400.0
1985-07-26 , 57700.0
1985-07-27 , 57300.0
1985-07-28 , 60100.0
1985-07-29 , 63700.0
1985-07-30 , 63300.0
1985-07-31 , 58800.0
1985-08-01 , 54100.0
1985-08-02 , 50500.0
1985-08-03 , 47100.0
1985-08-04 , 43700.0
1985-08-05 , 40100.0
1985-08-06 , 38100.0
1985-08-07 , 36700.0
1985-08-08 , 35800.0
1985-08-09 , 33900.0
1985-08-10 , 32700.0
1985-08-11 , 31800.0
1985-08-12 , 30200.0
1985-08-13 , 29900.0
1985-08-14 , 29900.0
1985-08-15 , 29800.0
1985-08-16 , 28600.0
1985-08-17 , 27600.0
1985-08-18 , 27000.0
1985-08-19 , 26300.0
1985-08-20 , 26700.0
1985-08-21 , 28000.0
1985-08-22 , 30000.0
1985-08-23 , 30000.0
1985-08-24 , 32600.0
1985-08-25 , 34800.0
1985-08-26 , 36800.0
1985-08-27 , 38700.0
1985-08-28 , 40200.0
1985-08-29 , 42000.0
1985-08-30 , 42100.0
1985-08-31 , 41000.0
1985-09-01 , 40500.0
1985-09-02 , 39700.0
1985-09-03 , 39100.0
1985-09-04 , 39200.0
1985-09-05 , 40200.0
1985-09-06 , 42900.0
1985-09-07 , 43700.0
1985-09-08 , 43100.0
1985-09-09 , 43300.0
1985-09-10 , 44300.0
1985-09-11 , 44200.0
1985-09-12 , 44400.0
1985-09-13 , 43900.0
1985-09-14 , 42000.0
1985-09-15 , 40700.0
1985-09-16 , 39600.0
1985-09-17 , 38600.0
1985-09-18 , 37600.0
1985-09-19 , 35100.0
1985-09-20 , 33600.0
1985-09-21 , 33000.0
1985-09-22 , 32900.0
1985-09-23 , 32900.0
1985-09-24 , 32800.0
1985-09-25 , 33700.0
1985-09-26 , 33400.0
1985-09-27 , 34000.0
1985-09-28 , 33800.0
1985-09-29 , 33200.0
1985-09-30 , 32300.0
1985-10-01 , 32200.0
1985-10-02 , 32700.0
1985-10-03 , 33900.0
1985-10-04 , 35000.0
1985-10-05 , 34200.0
1985-10-06 , 32700.0
1985-10-07 , 30900.0
1985-10-08 , 29900.0
1985-10-09 , 29100.0
1985-10-10 , 28000.0
1985-10-11 , 26900.0
1985-10-12 , 26000.0
1985-10-13 , 25000.0
1985-10-14 , 23800.0
1985-10-15 , 22500.0
1985-10-16 , 21300.0
1985-10-17 , 20200.0
1985-10-18 , 19500.0
1985-10-19 , 24600.0
1985-10-20 , 25800.0
1985-10-21 , 22900.0
1985-10-22 , 21000.0
1985-10-23 , 21000.0
1985-10-24 , 19600.0
1985-10-25 , 18600.0
1985-10-26 , 17500.0
1985-10-27 , 16500.0
1985-10-28 , 15600.0
1985-10-29 , 14900.0
1985-10-30 , 14500.0
1985-10-31 , 14100.0
1985-11-01 , 13900.0
1985-11-02 , 13600.0
1985-11-03 , 13300.0
1985-11-04 , 13000.0
1985-11-05 , 12800.0
1985-11-06 , 12500.0
1985-11-07 , 12200.0
1985-11-08 , 12000.0
1985-11-09 , 11800.0
1985-11-10 , 11600.0
1985-11-11 , 11500.0
1985-11-12 , 11300.0
1985-11-13 , 11200.0
1985-11-14 , 11000.0
1985-11-15 , 10900.0
1985-11-16 , 10700.0
1985-11-17 , 10400.0
1985-11-18 , 10200.0
1985-11-19 , 9990.0
1985-11-20 , 9790.0
1985-11-21 , 9640.0
1985-11-22 , 9450.0
1985-11-23 , 9450.0
1985-11-24 , 9060.0
1985-11-25 , 8870.0
1985-11-26 , 8770.0
1985-11-27 , 8650.0
1985-11-28 , 8540.0
1985-11-29 , 8440.0
1985-11-30 , 8290.0
1985-12-01 , 8320.0
1985-12-02 , 8230.0
1985-12-03 , 8170.0
1985-12-04 , 8110.0
1985-12-05 , 8050.0
1985-12-06 , 8010.0
1985-12-07 , 7980.0
1985-12-08 , 7940.0
1985-12-09 , 7890.0
1985-12-10 , 7790.0
1985-12-11 , 7700.0
1985-12-12 , 7620.0
1985-12-13 , 7520.0
1985-12-14 , 7440.0
1985-12-15 , 7370.0
1985-12-16 , 7310.0
1985-12-17 , 7240.0
1985-12-18 , 7160.0
1985-12-19 , 7080.0
1985-12-20 , 7040.0
1985-12-21 , 7010.0
1985-12-22 , 6980.0
1985-12-23 , 6980.0
1985-12-24 , 6800.0
1985-12-25 , 6700.0
1985-12-26 , 6620.0
1985-12-27 , 6650.0
1985-12-28 , 6670.0
1985-12-29 , 6690.0
1985-12-30 , 6610.0
1985-12-31 , 6490.0
1986-01-01 , 6360.0
1986-01-02 , 6250.0
1986-01-03 , 6140.0
1986-01-04 , 5960.0
1986-01-05 , 5850.0
1986-01-06 , 5820.0
1986-01-07 , 5790.0
1986-01-08 , 5730.0
1986-01-09 , 5670.0
1986-01-10 , 5520.0
1986-01-11 , 5420.0
1986-01-12 , 5330.0
1986-01-13 , 5220.0
1986-01-14 , 5120.0
1986-01-15 , 5070.0
1986-01-16 , 5020.0
1986-01-17 , 4940.0
1986-01-18 , 4930.0
1986-01-19 , 4880.0
1986-01-20 , 4800.0
1986-01-21 , 4720.0
1986-01-22 , 4710.0
1986-01-23 , 4710.0
1986-01-24 , 4610.0
1986-01-25 , 4570.0
1986-01-26 , 4520.0
1986-01-27 , 4470.0
1986-01-28 , 4410.0
1986-01-29 , 4410.0
1986-01-30 , 4370.0
1986-01-31 , 4350.0
1986-02-01 , 4340.0
1986-02-02 , 4340.0
1986-02-03 , 4310.0
1986-02-04 , 4250.0
1986-02-05 , 4210.0
1986-02-06 , 4150.0
1986-02-07 , 4150.0
1986-02-08 , 4160.0
1986-02-09 , 4280.0
1986-02-10 , 4320.0
1986-02-11 , 4440.0
1986-02-12 , 4480.0
1986-02-13 , 4430.0
1986-02-14 , 4270.0
1986-02-15 , 4230.0
1986-02-16 , 4280.0
1986-02-17 , 4290.0
1986-02-18 , 4260.0
1986-02-19 , 4250.0
1986-02-20 , 4190.0
1986-02-21 , 4160.0
1986-02-22 , 4130.0
1986-02-23 , 4130.0
1986-02-24 , 4140.0
1986-02-25 , 4150.0
1986-02-26 , 4130.0
1986-02-27 , 4130.0
1986-02-28 , 4060.0
1986-03-01 , 4060.0
1986-03-02 , 4010.0
1986-03-03 , 3990.0
1986-03-04 , 3970.0
1986-03-05 , 3980.0
1986-03-06 , 4020.0
1986-03-07 , 4000.0
1986-03-08 , 4010.0
1986-03-09 , 4020.0
1986-03-10 , 4030.0
1986-03-11 , 3980.0
1986-03-12 , 3880.0
1986-03-13 , 3820.0
1986-03-14 , 3740.0
1986-03-15 , 3730.0
1986-03-16 , 3680.0
1986-03-17 , 3670.0
1986-03-18 , 3660.0
1986-03-19 , 3690.0
1986-03-20 , 3700.0
1986-03-21 , 3800.0
1986-03-22 , 3830.0
1986-03-23 , 3830.0
1986-03-24 , 4440.0
1986-03-25 , 4910.0
1986-03-26 , 5060.0
1986-03-27 , 4940.0
1986-03-28 , 4840.0
1986-03-29 , 4780.0
1986-03-30 , 4740.0
1986-03-31 , 4720.0
1986-04-01 , 4770.0
1986-04-02 , 4690.0
1986-04-03 , 4630.0
1986-04-04 , 4580.0
1986-04-05 , 4650.0
1986-04-06 , 4610.0
1986-04-07 , 4580.0
1986-04-08 , 4570.0
1986-04-09 , 4850.0
1986-04-10 , 5680.0
1986-04-11 , 6670.0
1986-04-12 , 7260.0
1986-04-13 , 7410.0
1986-04-14 , 7120.0
1986-04-15 , 6980.0
1986-04-16 , 6810.0
1986-04-17 , 6780.0
1986-04-18 , 6580.0
1986-04-19 , 6520.0
1986-04-20 , 7350.0
1986-04-21 , 7880.0
1986-04-22 , 8600.0
1986-04-23 , 8600.0
1986-04-24 , 12100.0
1986-04-25 , 12500.0
1986-04-26 , 12200.0
1986-04-27 , 11900.0
1986-04-28 , 11500.0
1986-04-29 , 11300.0
1986-04-30 , 11300.0
1986-05-01 , 11100.0
1986-05-02 , 11400.0
1986-05-03 , 12000.0
1986-05-04 , 12500.0
1986-05-05 , 12700.0
1986-05-06 , 12800.0
1986-05-07 , 12900.0
1986-05-08 , 12800.0
1986-05-09 , 12400.0
1986-05-10 , 12300.0
1986-05-11 , 12500.0
1986-05-12 , 13500.0
1986-05-13 , 13500.0
1986-05-14 , 13100.0
1986-05-15 , 12400.0
1986-05-16 , 11900.0
1986-05-17 , 11600.0
1986-05-18 , 11500.0
1986-05-19 , 11500.0
1986-05-20 , 11700.0
1986-05-21 , 11800.0
1986-05-22 , 11900.0
1986-05-23 , 11900.0
1986-05-24 , 11700.0
1986-05-25 , 11500.0
1986-05-26 , 11400.0
1986-05-27 , 11300.0
1986-05-28 , 11100.0
1986-05-29 , 10900.0
1986-05-30 , 10700.0
1986-05-31 , 10600.0
1986-06-01 , 10700.0
1986-06-02 , 10700.0
1986-06-03 , 10600.0
1986-06-04 , 10600.0
1986-06-05 , 10600.0
1986-06-06 , 10800.0
1986-06-07 , 11300.0
1986-06-08 , 12000.0
1986-06-09 , 13000.0
1986-06-10 , 14100.0
1986-06-11 , 14400.0
1986-06-12 , 14400.0
1986-06-13 , 14500.0
1986-06-14 , 14300.0
1986-06-15 , 14200.0
1986-06-16 , 14300.0
1986-06-17 , 14600.0
1986-06-18 , 15300.0
1986-06-19 , 17400.0
1986-06-20 , 19500.0
1986-06-21 , 21100.0
1986-06-22 , 23500.0
1986-06-23 , 23500.0
1986-06-24 , 27700.0
1986-06-25 , 28400.0
1986-06-26 , 29100.0
1986-06-27 , 30400.0
1986-06-28 , 33000.0
1986-06-29 , 37200.0
1986-06-30 , 40500.0
1986-07-01 , 42200.0
1986-07-02 , 41800.0
1986-07-03 , 41000.0
1986-07-04 , 39000.0
1986-07-05 , 37000.0
1986-07-06 , 36300.0
1986-07-07 , 35800.0
1986-07-08 , 34500.0
1986-07-09 , 33600.0
1986-07-10 , 33800.0
1986-07-11 , 32800.0
1986-07-12 , 30300.0
1986-07-13 , 29100.0
1986-07-14 , 28100.0
1986-07-15 , 29000.0
1986-07-16 , 29700.0
1986-07-17 , 30700.0
1986-07-18 , 32300.0
1986-07-19 , 34400.0
1986-07-20 , 36000.0
1986-07-21 , 36700.0
1986-07-22 , 37400.0
1986-07-23 , 37400.0
1986-07-24 , 39100.0
1986-07-25 , 38600.0
1986-07-26 , 38100.0
1986-07-27 , 38900.0
1986-07-28 , 37500.0
1986-07-29 , 35500.0
1986-07-30 , 35100.0
1986-07-31 , 33900.0
1986-08-01 , 32500.0
1986-08-02 , 33800.0
1986-08-03 , 37400.0
1986-08-04 , 38800.0
1986-08-05 , 38100.0
1986-08-06 , 37100.0
1986-08-07 , 36500.0
1986-08-08 , 36300.0
1986-08-09 , 35600.0
1986-08-10 , 33200.0
1986-08-11 , 31100.0
1986-08-12 , 29000.0
1986-08-13 , 27000.0
1986-08-14 , 25300.0
1986-08-15 , 24300.0
1986-08-16 , 23300.0
1986-08-17 , 22800.0
1986-08-18 , 22900.0
1986-08-19 , 23400.0
1986-08-20 , 23700.0
1986-08-21 , 24000.0
1986-08-22 , 24300.0
1986-08-23 , 24300.0
1986-08-24 , 26800.0
1986-08-25 , 29700.0
1986-08-26 , 30500.0
1986-08-27 , 30600.0
1986-08-28 , 32200.0
1986-08-29 , 34200.0
1986-08-30 , 35500.0
1986-08-31 , 36800.0
1986-09-01 , 38100.0
1986-09-02 , 39100.0
1986-09-03 , 38300.0
1986-09-04 , 37600.0
1986-09-05 , 37100.0
1986-09-06 , 36200.0
1986-09-07 , 34900.0
1986-09-08 , 33700.0
1986-09-09 , 33200.0
1986-09-10 , 32700.0
1986-09-11 , 32000.0
1986-09-12 , 33200.0
1986-09-13 , 35800.0
1986-09-14 , 36100.0
1986-09-15 , 36500.0
1986-09-16 , 38000.0
1986-09-17 , 40100.0
1986-09-18 , 40400.0
1986-09-19 , 41500.0
1986-09-20 , 42500.0
1986-09-21 , 43100.0
1986-09-22 , 41500.0
1986-09-23 , 41500.0
1986-09-24 , 37100.0
1986-09-25 , 35300.0
1986-09-26 , 33300.0
1986-09-27 , 31700.0
1986-09-28 , 31600.0
1986-09-29 , 29100.0
1986-09-30 , 28400.0
1986-10-01 , 27500.0
1986-10-02 , 27100.0
1986-10-03 , 25400.0
1986-10-04 , 24400.0
1986-10-05 , 23200.0
1986-10-06 , 24000.0
1986-10-07 , 26000.0
1986-10-08 , 28200.0
1986-10-09 , 29500.0
1986-10-10 , 30000.0
1986-10-11 , 28900.0
1986-10-12 , 27500.0
1986-10-13 , 26300.0
1986-10-14 , 26600.0
1986-10-15 , 27800.0
1986-10-16 , 28400.0
1986-10-17 , 28800.0
1986-10-18 , 26900.0
1986-10-19 , 25500.0
1986-10-20 , 24100.0
1986-10-21 , 23500.0
1986-10-22 , 22900.0
1986-10-23 , 22900.0
1986-10-24 , 21200.0
1986-10-25 , 20100.0
1986-10-26 , 18800.0
1986-10-27 , 18000.0
1986-10-28 , 17000.0
1986-10-29 , 16400.0
1986-10-30 , 15800.0
1986-10-31 , 15200.0
1986-11-01 , 14600.0
1986-11-02 , 14100.0
1986-11-03 , 13600.0
1986-11-04 , 13100.0
1986-11-05 , 12900.0
1986-11-06 , 12600.0
1986-11-07 , 12300.0
1986-11-08 , 12100.0
1986-11-09 , 11800.0
1986-11-10 , 11400.0
1986-11-11 , 11100.0
1986-11-12 , 10900.0
1986-11-13 , 10600.0
1986-11-14 , 10600.0
1986-11-15 , 10500.0
1986-11-16 , 10400.0
1986-11-17 , 10200.0
1986-11-18 , 10200.0
1986-11-19 , 10000.0
1986-11-20 , 9900.0
1986-11-21 , 9420.0
1986-11-22 , 9050.0
1986-11-23 , 9050.0
1986-11-24 , 8630.0
1986-11-25 , 8530.0
1986-11-26 , 8370.0
1986-11-27 , 8300.0
1986-11-28 , 8360.0
1986-11-29 , 8320.0
1986-11-30 , 8250.0
1986-12-01 , 8210.0
1986-12-02 , 8030.0
1986-12-03 , 7860.0
1986-12-04 , 7700.0
1986-12-05 , 7560.0
1986-12-06 , 7370.0
1986-12-07 , 7070.0
1986-12-08 , 7000.0
1986-12-09 , 6840.0
1986-12-10 , 6780.0
1986-12-11 , 6720.0
1986-12-12 , 6650.0
1986-12-13 , 6560.0
1986-12-14 , 6550.0
1986-12-15 , 6540.0
1986-12-16 , 6450.0
1986-12-17 , 6400.0
1986-12-18 , 6350.0
1986-12-19 , 6290.0
1986-12-20 , 6220.0
1986-12-21 , 6210.0
1986-12-22 , 6150.0
1986-12-23 , 6150.0
1986-12-24 , 6110.0
1986-12-25 , 6100.0
1986-12-26 , 6020.0
1986-12-27 , 5960.0
1986-12-28 , 5920.0
1986-12-29 , 5870.0
1986-12-30 , 5800.0
1986-12-31 , 5820.0
1987-01-01 , 5810.0
1987-01-02 , 5680.0
1987-01-03 , 5630.0
1987-01-04 , 5600.0
1987-01-05 , 5640.0
1987-01-06 , 5600.0
1987-01-07 , 5500.0
1987-01-08 , 5470.0
1987-01-09 , 5440.0
1987-01-10 , 5360.0
1987-01-11 , 5310.0
1987-01-12 , 5260.0
1987-01-13 , 5210.0
1987-01-14 , 5170.0
1987-01-15 , 5070.0
1987-01-16 , 5040.0
1987-01-17 , 5010.0
1987-01-18 , 4970.0
1987-01-19 , 4910.0
1987-01-20 , 4870.0
1987-01-21 , 4780.0
1987-01-22 , 4740.0
1987-01-23 , 4740.0
1987-01-24 , 4670.0
1987-01-25 , 4590.0
1987-01-26 , 4540.0
1987-01-27 , 4530.0
1987-01-28 , 4470.0
1987-01-29 , 4360.0
1987-01-30 , 4290.0
1987-01-31 , 4260.0
1987-02-01 , 4190.0
1987-02-02 , 4140.0
1987-02-03 , 4110.0
1987-02-04 , 4070.0
1987-02-05 , 4070.0
1987-02-06 , 4040.0
1987-02-07 , 4000.0
1987-02-08 , 3960.0
1987-02-09 , 3960.0
1987-02-10 , 3930.0
1987-02-11 , 3930.0
1987-02-12 , 3930.0
1987-02-13 , 3890.0
1987-02-14 , 3840.0
1987-02-15 , 3790.0
1987-02-16 , 3750.0
1987-02-17 , 3740.0
1987-02-18 , 3660.0
1987-02-19 , 3620.0
1987-02-20 , 3540.0
1987-02-21 , 3490.0
1987-02-22 , 3480.0
1987-02-23 , 3480.0
1987-02-24 , 3430.0
1987-02-25 , 3420.0
1987-02-26 , 3380.0
1987-02-27 , 3370.0
1987-02-28 , 3420.0
1987-03-01 , 3480.0
1987-03-02 , 3480.0
1987-03-03 , 3550.0
1987-03-04 , 3560.0
1987-03-05 , 3610.0
1987-03-06 , 3590.0
1987-03-07 , 3570.0
1987-03-08 , 3650.0
1987-03-09 , 3780.0
1987-03-10 , 3920.0
1987-03-11 , 4100.0
1987-03-12 , 4150.0
1987-03-13 , 4160.0
1987-03-14 , 4180.0
1987-03-15 , 4190.0
1987-03-16 , 4250.0
1987-03-17 , 4330.0
1987-03-18 , 4430.0
1987-03-19 , 4560.0
1987-03-20 , 4830.0
1987-03-21 , 5010.0
1987-03-22 , 5020.0
1987-03-23 , 5020.0
1987-03-24 , 5080.0
1987-03-25 , 5020.0
1987-03-26 , 4900.0
1987-03-27 , 4760.0
1987-03-28 , 4730.0
1987-03-29 , 4780.0
1987-03-30 , 4860.0
1987-03-31 , 4990.0
1987-04-01 , 4790.0
1987-04-02 , 4670.0
1987-04-03 , 4620.0
1987-04-04 , 4690.0
1987-04-05 , 5020.0
1987-04-06 , 5490.0
1987-04-07 , 5880.0
1987-04-08 , 5940.0
1987-04-09 , 5940.0
1987-04-10 , 6740.0
1987-04-11 , 8620.0
1987-04-12 , 10200.0
1987-04-13 , 10400.0
1987-04-14 , 9890.0
1987-04-15 , 9440.0
1987-04-16 , 9330.0
1987-04-17 , 10300.0
1987-04-18 , 11800.0
1987-04-19 , 12500.0
1987-04-20 , 12100.0
1987-04-21 , 11500.0
1987-04-22 , 11000.0
1987-04-23 , 11000.0
1987-04-24 , 10300.0
1987-04-25 , 9880.0
1987-04-26 , 9470.0
1987-04-27 , 9180.0
1987-04-28 , 9060.0
1987-04-29 , 9070.0
1987-04-30 , 9330.0
1987-05-01 , 9900.0
1987-05-02 , 10400.0
1987-05-03 , 11200.0
1987-05-04 , 11400.0
1987-05-05 , 11200.0
1987-05-06 , 10800.0
1987-05-07 , 10600.0
1987-05-08 , 10700.0
1987-05-09 , 11200.0
1987-05-10 , 11400.0
1987-05-11 , 11700.0
1987-05-12 , 12000.0
1987-05-13 , 12100.0
1987-05-14 , 11800.0
1987-05-15 , 11200.0
1987-05-16 , 10600.0
1987-05-17 , 10300.0
1987-05-18 , 10200.0
1987-05-19 , 10200.0
1987-05-20 , 10600.0
1987-05-21 , 11000.0
1987-05-22 , 10900.0
1987-05-23 , 10900.0
1987-05-24 , 11800.0
1987-05-25 , 14100.0
1987-05-26 , 15700.0
1987-05-27 , 16100.0
1987-05-28 , 15800.0
1987-05-29 , 15300.0
1987-05-30 , 15400.0
1987-05-31 , 16100.0
1987-06-01 , 17100.0
1987-06-02 , 17700.0
1987-06-03 , 17300.0
1987-06-04 , 16400.0
1987-06-05 , 15900.0
1987-06-06 , 15500.0
1987-06-07 , 15300.0
1987-06-08 , 16300.0
1987-06-09 , 18000.0
1987-06-10 , 19100.0
1987-06-11 , 20100.0
1987-06-12 , 22400.0
1987-06-13 , 23600.0
1987-06-14 , 24000.0
1987-06-15 , 24400.0
1987-06-16 , 24800.0
1987-06-17 , 25700.0
1987-06-18 , 26600.0
1987-06-19 , 27000.0
1987-06-20 , 27000.0
1987-06-21 , 26400.0
1987-06-22 , 26300.0
1987-06-23 , 26300.0
1987-06-24 , 27100.0
1987-06-25 , 28600.0
1987-06-26 , 31000.0
1987-06-27 , 33100.0
1987-06-28 , 35400.0
1987-06-29 , 38800.0
1987-06-30 , 41800.0
1987-07-01 , 45600.0
1987-07-02 , 50700.0
1987-07-03 , 53200.0
1987-07-04 , 52700.0
1987-07-05 , 50600.0
1987-07-06 , 49100.0
1987-07-07 , 49800.0
1987-07-08 , 50900.0
1987-07-09 , 52100.0
1987-07-10 , 52400.0
1987-07-11 , 52300.0
1987-07-12 , 52000.0
1987-07-13 , 51900.0
1987-07-14 , 52200.0
1987-07-15 , 51200.0
1987-07-16 , 50000.0
1987-07-17 , 48400.0
1987-07-18 , 47400.0
1987-07-19 , 45900.0
1987-07-20 , 44300.0
1987-07-21 , 44100.0
1987-07-22 , 44600.0
1987-07-23 , 44600.0
1987-07-24 , 51700.0
1987-07-25 , 54300.0
1987-07-26 , 54400.0
1987-07-27 , 57700.0
1987-07-28 , 62900.0
1987-07-29 , 64700.0
1987-07-30 , 63200.0
1987-07-31 , 62000.0
1987-08-01 , 60300.0
1987-08-02 , 59300.0
1987-08-03 , 57700.0
1987-08-04 , 58800.0
1987-08-05 , 58100.0
1987-08-06 , 56400.0
1987-08-07 , 54900.0
1987-08-08 , 53500.0
1987-08-09 , 52900.0
1987-08-10 , 54600.0
1987-08-11 , 63000.0
1987-08-12 , 72500.0
1987-08-13 , 72700.0
1987-08-14 , 72000.0
1987-08-15 , 73000.0
1987-08-16 , 72500.0
1987-08-17 , 71200.0
1987-08-18 , 69600.0
1987-08-19 , 65700.0
1987-08-20 , 61100.0
1987-08-21 , 56300.0
1987-08-22 , 51600.0
1987-08-23 , 51600.0
1987-08-24 , 44400.0
1987-08-25 , 41600.0
1987-08-26 , 39600.0
1987-08-27 , 38600.0
1987-08-28 , 37000.0
1987-08-29 , 36800.0
1987-08-30 , 37600.0
1987-08-31 , 36800.0
1987-09-01 , 37700.0
1987-09-02 , 39700.0
1987-09-03 , 42300.0
1987-09-04 , 44100.0
1987-09-05 , 44800.0
1987-09-06 , 46100.0
1987-09-07 , 47900.0
1987-09-08 , 49600.0
1987-09-09 , 50000.0
1987-09-10 , 50000.0
1987-09-11 , 49500.0
1987-09-12 , 49700.0
1987-09-13 , 48800.0
1987-09-14 , 46600.0
1987-09-15 , 43700.0
1987-09-16 , 41600.0
1987-09-17 , 40100.0
1987-09-18 , 38900.0
1987-09-19 , 39300.0
1987-09-20 , 42800.0
1987-09-21 , 43300.0
1987-09-22 , 41800.0
1987-09-23 , 41800.0
1987-09-24 , 39000.0
1987-09-25 , 38900.0
1987-09-26 , 37700.0
1987-09-27 , 37000.0
1987-09-28 , 38400.0
1987-09-29 , 38800.0
1987-09-30 , 39800.0
1987-10-01 , 41800.0
1987-10-02 , 43600.0
1987-10-03 , 45300.0
1987-10-04 , 46700.0
1987-10-05 , 45900.0
1987-10-06 , 43200.0
1987-10-07 , 39900.0
1987-10-08 , 37400.0
1987-10-09 , 35100.0
1987-10-10 , 33200.0
1987-10-11 , 31700.0
1987-10-12 , 30300.0
1987-10-13 , 28500.0
1987-10-14 , 27500.0
1987-10-15 , 26400.0
1987-10-16 , 25400.0
1987-10-17 , 24200.0
1987-10-18 , 23200.0
1987-10-19 , 22200.0
1987-10-20 , 23400.0
1987-10-21 , 24300.0
1987-10-22 , 24400.0
1987-10-23 , 24400.0
1987-10-24 , 22100.0
1987-10-25 , 21900.0
1987-10-26 , 22300.0
1987-10-27 , 22400.0
1987-10-28 , 21400.0
1987-10-29 , 20100.0
1987-10-30 , 19000.0
1987-10-31 , 18000.0
1987-11-01 , 17200.0
1987-11-02 , 16600.0
1987-11-03 , 16100.0
1987-11-04 , 15600.0
1987-11-05 , 15200.0
1987-11-06 , 14800.0
1987-11-07 , 14500.0
1987-11-08 , 14300.0
1987-11-09 , 14000.0
1987-11-10 , 13600.0
1987-11-11 , 13200.0
1987-11-12 , 12800.0
1987-11-13 , 12500.0
1987-11-14 , 12100.0
1987-11-15 , 12000.0
1987-11-16 , 11800.0
1987-11-17 , 11600.0
1987-11-18 , 11400.0
1987-11-19 , 11200.0
1987-11-20 , 11000.0
1987-11-21 , 10900.0
1987-11-22 , 10700.0
1987-11-23 , 10700.0
1987-11-24 , 10200.0
1987-11-25 , 10000.0
1987-11-26 , 9910.0
1987-11-27 , 9690.0
1987-11-28 , 9500.0
1987-11-29 , 9310.0
1987-11-30 , 9160.0
1987-12-01 , 9040.0
1987-12-02 , 8940.0
1987-12-03 , 8820.0
1987-12-04 , 8720.0
1987-12-05 , 8680.0
1987-12-06 , 8590.0
1987-12-07 , 8470.0
1987-12-08 , 8430.0
1987-12-09 , 8350.0
1987-12-10 , 8290.0
1987-12-11 , 8210.0
1987-12-12 , 8120.0
1987-12-13 , 8030.0
1987-12-14 , 7980.0
1987-12-15 , 7860.0
1987-12-16 , 7780.0
1987-12-17 , 7720.0
1987-12-18 , 7600.0
1987-12-19 , 7470.0
1987-12-20 , 7390.0
1987-12-21 , 7320.0
1987-12-22 , 7260.0
1987-12-23 , 7260.0
1987-12-24 , 7010.0
1987-12-25 , 6870.0
1987-12-26 , 6720.0
1987-12-27 , 6620.0
1987-12-28 , 6510.0
1987-12-29 , 6380.0
1987-12-30 , 6260.0
1987-12-31 , 6150.0
1988-01-01 , 5990.0
1988-01-02 , 5880.0
1988-01-03 , 5770.0
1988-01-04 , 5620.0
1988-01-05 , 5490.0
1988-01-06 , 5380.0
1988-01-07 , 5250.0
1988-01-08 , 5140.0
1988-01-09 , 5030.0
1988-01-10 , 4910.0
1988-01-11 , 4820.0
1988-01-12 , 4830.0
1988-01-13 , 4780.0
1988-01-14 , 4760.0
1988-01-15 , 4740.0
1988-01-16 , 4720.0
1988-01-17 , 4740.0
1988-01-18 , 4720.0
1988-01-19 , 4710.0
1988-01-20 , 4650.0
1988-01-21 , 4630.0
1988-01-22 , 4650.0
1988-01-23 , 4650.0
1988-01-24 , 4620.0
1988-01-25 , 4640.0
1988-01-26 , 4670.0
1988-01-27 , 4660.0
1988-01-28 , 4630.0
1988-01-29 , 4590.0
1988-01-30 , 4520.0
1988-01-31 , 4510.0
1988-02-01 , 4500.0
1988-02-02 , 4530.0
1988-02-03 , 4560.0
1988-02-04 , 4580.0
1988-02-05 , 4540.0
1988-02-06 , 4550.0
1988-02-07 , 4510.0
1988-02-08 , 4460.0
1988-02-09 , 4380.0
1988-02-10 , 4310.0
1988-02-11 , 4300.0
1988-02-12 , 4260.0
1988-02-13 , 4230.0
1988-02-14 , 4200.0
1988-02-15 , 4160.0
1988-02-16 , 4110.0
1988-02-17 , 4100.0
1988-02-18 , 4060.0
1988-02-19 , 4030.0
1988-02-20 , 4010.0
1988-02-21 , 4000.0
1988-02-22 , 3990.0
1988-02-23 , 3990.0
1988-02-24 , 4350.0
1988-02-25 , 4650.0
1988-02-26 , 4700.0
1988-02-27 , 4700.0
1988-02-28 , 4590.0
1988-02-29 , 4410.0
1988-03-01 , 4290.0
1988-03-02 , 4210.0
1988-03-03 , 4350.0
1988-03-04 , 4660.0
1988-03-05 , 4900.0
1988-03-06 , 4970.0
1988-03-07 , 4660.0
1988-03-08 , 4410.0
1988-03-09 , 4260.0
1988-03-10 , 4380.0
1988-03-11 , 4660.0
1988-03-12 , 4940.0
1988-03-13 , 4920.0
1988-03-14 , 4790.0
1988-03-15 , 4660.0
1988-03-16 , 4630.0
1988-03-17 , 4600.0
1988-03-18 , 4530.0
1988-03-19 , 4610.0
1988-03-20 , 4770.0
1988-03-21 , 5470.0
1988-03-22 , 6690.0
1988-03-23 , 6690.0
1988-03-24 , 6990.0
1988-03-25 , 6680.0
1988-03-26 , 6770.0
1988-03-27 , 8130.0
1988-03-28 , 9020.0
1988-03-29 , 8910.0
1988-03-30 , 8320.0
1988-03-31 , 7810.0
1988-04-01 , 7810.0
1988-04-02 , 7010.0
1988-04-03 , 6710.0
1988-04-04 , 6660.0
1988-04-05 , 7060.0
1988-04-06 , 7290.0
1988-04-07 , 7140.0
1988-04-08 , 6750.0
1988-04-09 , 6520.0
1988-04-10 , 6380.0
1988-04-11 , 6340.0
1988-04-12 , 6310.0
1988-04-13 , 6300.0
1988-04-14 , 6730.0
1988-04-15 , 7430.0
1988-04-16 , 8520.0
1988-04-17 , 9990.0
1988-04-18 , 11000.0
1988-04-19 , 11000.0
1988-04-20 , 11000.0
1988-04-21 , 11000.0
1988-04-22 , 11200.0
1988-04-23 , 11200.0
1988-04-24 , 10800.0
1988-04-25 , 10600.0
1988-04-26 , 10700.0
1988-04-27 , 10900.0
1988-04-28 , 11500.0
1988-04-29 , 11900.0
1988-04-30 , 12300.0
1988-05-01 , 11800.0
1988-05-02 , 11100.0
1988-05-03 , 10800.0
1988-05-04 , 10800.0
1988-05-05 , 11000.0
1988-05-06 , 10700.0
1988-05-07 , 10300.0
1988-05-08 , 10100.0
1988-05-09 , 10000.0
1988-05-10 , 10700.0
1988-05-11 , 11100.0
1988-05-12 , 12100.0
1988-05-13 , 13200.0
1988-05-14 , 13900.0
1988-05-15 , 16400.0
1988-05-16 , 21500.0
1988-05-17 , 24600.0
1988-05-18 , 24000.0
1988-05-19 , 21900.0
1988-05-20 , 19900.0
1988-05-21 , 18800.0
1988-05-22 , 18000.0
1988-05-23 , 18000.0
1988-05-24 , 17800.0
1988-05-25 , 18700.0
1988-05-26 , 20600.0
1988-05-27 , 24400.0
1988-05-28 , 27100.0
1988-05-29 , 29400.0
1988-05-30 , 31300.0
1988-05-31 , 33400.0
1988-06-01 , 34200.0
1988-06-02 , 34000.0
1988-06-03 , 32300.0
1988-06-04 , 30000.0
1988-06-05 , 27800.0
1988-06-06 , 26500.0
1988-06-07 , 25400.0
1988-06-08 , 24500.0
1988-06-09 , 23700.0
1988-06-10 , 22900.0
1988-06-11 , 22400.0
1988-06-12 , 22300.0
1988-06-13 , 23000.0
1988-06-14 , 24700.0
1988-06-15 , 26000.0
1988-06-16 , 26600.0
1988-06-17 , 27000.0
1988-06-18 , 28100.0
1988-06-19 , 31000.0
1988-06-20 , 31600.0
1988-06-21 , 31500.0
1988-06-22 , 31000.0
1988-06-23 , 31000.0
1988-06-24 , 33500.0
1988-06-25 , 32200.0
1988-06-26 , 31700.0
1988-06-27 , 31000.0
1988-06-28 , 30300.0
1988-06-29 , 28900.0
1988-06-30 , 27300.0
1988-07-01 , 26100.0
1988-07-02 , 25800.0
1988-07-03 , 26500.0
1988-07-04 , 28600.0
1988-07-05 , 33400.0
1988-07-06 , 40800.0
1988-07-07 , 49000.0
1988-07-08 , 59200.0
1988-07-09 , 66500.0
1988-07-10 , 69100.0
1988-07-11 , 69600.0
1988-07-12 , 66900.0
1988-07-13 , 63200.0
1988-07-14 , 59400.0
1988-07-15 , 54900.0
1988-07-16 , 49000.0
1988-07-17 , 44300.0
1988-07-18 , 40700.0
1988-07-19 , 39200.0
1988-07-20 , 38700.0
1988-07-21 , 37600.0
1988-07-22 , 38100.0
1988-07-23 , 38100.0
1988-07-24 , 44400.0
1988-07-25 , 48700.0
1988-07-26 , 49800.0
1988-07-27 , 49800.0
1988-07-28 , 51400.0
1988-07-29 , 53600.0
1988-07-30 , 55000.0
1988-07-31 , 55600.0
1988-08-01 , 54800.0
1988-08-02 , 53000.0
1988-08-03 , 50200.0
1988-08-04 , 46500.0
1988-08-05 , 43100.0
1988-08-06 , 39900.0
1988-08-07 , 39400.0
1988-08-08 , 40700.0
1988-08-09 , 40500.0
1988-08-10 , 38900.0
1988-08-11 , 38600.0
1988-08-12 , 41700.0
1988-08-13 , 45500.0
1988-08-14 , 47100.0
1988-08-15 , 45900.0
1988-08-16 , 46400.0
1988-08-17 , 48500.0
1988-08-18 , 48400.0
1988-08-19 , 48000.0
1988-08-20 , 47800.0
1988-08-21 , 47500.0
1988-08-22 , 48700.0
1988-08-23 , 48700.0
1988-08-24 , 58900.0
1988-08-25 , 67600.0
1988-08-26 , 76000.0
1988-08-27 , 84900.0
1988-08-28 , 89400.0
1988-08-29 , 94400.0
1988-08-30 , 98300.0
1988-08-31 , 93800.0
1988-09-01 , 89400.0
1988-09-02 , 80200.0
1988-09-03 , 73100.0
1988-09-04 , 67900.0
1988-09-05 , 63700.0
1988-09-06 , 63600.0
1988-09-07 , 66200.0
1988-09-08 , 66800.0
1988-09-09 , 67200.0
1988-09-10 , 66700.0
1988-09-11 , 66300.0
1988-09-12 , 63700.0
1988-09-13 , 63400.0
1988-09-14 , 62200.0
1988-09-15 , 60900.0
1988-09-16 , 58800.0
1988-09-17 , 56200.0
1988-09-18 , 51600.0
1988-09-19 , 48400.0
1988-09-20 , 44600.0
1988-09-21 , 42000.0
1988-09-22 , 39100.0
1988-09-23 , 39100.0
1988-09-24 , 35400.0
1988-09-25 , 33700.0
1988-09-26 , 31900.0
1988-09-27 , 31800.0
1988-09-28 , 34300.0
1988-09-29 , 37700.0
1988-09-30 , 37300.0
1988-10-01 , 36500.0
1988-10-02 , 36700.0
1988-10-03 , 38800.0
1988-10-04 , 40400.0
1988-10-05 , 40900.0
1988-10-06 , 39300.0
1988-10-07 , 38200.0
1988-10-08 , 38300.0
1988-10-09 , 38700.0
1988-10-10 , 41900.0
1988-10-11 , 44200.0
1988-10-12 , 43200.0
1988-10-13 , 40300.0
1988-10-14 , 37100.0
1988-10-15 , 34400.0
1988-10-16 , 32200.0
1988-10-17 , 30400.0
1988-10-18 , 29400.0
1988-10-19 , 29100.0
1988-10-20 , 28800.0
1988-10-21 , 28600.0
1988-10-22 , 28400.0
1988-10-23 , 28400.0
1988-10-24 , 29400.0
1988-10-25 , 31300.0
1988-10-26 , 31600.0
1988-10-27 , 30100.0
1988-10-28 , 27900.0
1988-10-29 , 26000.0
1988-10-30 , 24200.0
1988-10-31 , 22600.0
1988-11-01 , 21600.0
1988-11-02 , 20900.0
1988-11-03 , 20000.0
1988-11-04 , 19400.0
1988-11-05 , 19000.0
1988-11-06 , 18400.0
1988-11-07 , 17900.0
1988-11-08 , 17600.0
1988-11-09 , 17200.0
1988-11-10 , 16900.0
1988-11-11 , 16700.0
1988-11-12 , 16500.0
1988-11-13 , 16300.0
1988-11-14 , 16100.0
1988-11-15 , 15800.0
1988-11-16 , 15600.0
1988-11-17 , 15300.0
1988-11-18 , 15200.0
1988-11-19 , 15000.0
1988-11-20 , 14900.0
1988-11-21 , 14700.0
1988-11-22 , 14600.0
1988-11-23 , 14600.0
1988-11-24 , 14400.0
1988-11-25 , 14200.0
1988-11-26 , 14200.0
1988-11-27 , 14100.0
1988-11-28 , 14200.0
1988-11-29 , 13700.0
1988-11-30 , 13700.0
1988-12-01 , 13100.0
1988-12-02 , 12800.0
1988-12-03 , 12600.0
1988-12-04 , 12500.0
1988-12-05 , 12400.0
1988-12-06 , 12000.0
1988-12-07 , 11700.0
1988-12-08 , 11300.0
1988-12-09 , 10700.0
1988-12-10 , 10100.0
1988-12-11 , 9390.0
1988-12-12 , 8770.0
1988-12-13 , 8620.0
1988-12-14 , 8410.0
1988-12-15 , 8270.0
1988-12-16 , 8240.0
1988-12-17 , 8210.0
1988-12-18 , 8120.0
1988-12-19 , 8000.0
1988-12-20 , 7940.0
1988-12-21 , 7850.0
1988-12-22 , 7840.0
1988-12-23 , 7840.0
1988-12-24 , 7800.0
1988-12-25 , 7730.0
1988-12-26 , 7650.0
1988-12-27 , 7550.0
1988-12-28 , 7450.0
1988-12-29 , 7380.0
1988-12-30 , 7330.0
1988-12-31 , 7270.0
1989-01-01 , 7210.0
1989-01-02 , 7120.0
1989-01-03 , 7080.0
1989-01-04 , 7030.0
1989-01-05 , 6940.0
1989-01-06 , 6890.0
1989-01-07 , 6840.0
1989-01-08 , 6790.0
1989-01-09 , 6790.0
1989-01-10 , 6740.0
1989-01-11 , 6690.0
1989-01-12 , 6720.0
1989-01-13 , 6690.0
1989-01-14 , 6640.0
1989-01-15 , 6540.0
1989-01-16 , 6530.0
1989-01-17 , 6490.0
1989-01-18 , 6490.0
1989-01-19 , 6480.0
1989-01-20 , 6460.0
1989-01-21 , 6410.0
1989-01-22 , 6370.0
1989-01-23 , 6370.0
1989-01-24 , 6230.0
1989-01-25 , 6130.0
1989-01-26 , 6100.0
1989-01-27 , 6040.0
1989-01-28 , 5980.0
1989-01-29 , 5970.0
1989-01-30 , 5910.0
1989-01-31 , 5880.0
1989-02-01 , 5830.0
1989-02-02 , 5790.0
1989-02-03 , 5760.0
1989-02-04 , 5770.0
1989-02-05 , 5750.0
1989-02-06 , 5670.0
1989-02-07 , 5530.0
1989-02-08 , 5440.0
1989-02-09 , 5390.0
1989-02-10 , 5340.0
1989-02-11 , 5280.0
1989-02-12 , 5410.0
1989-02-13 , 5490.0
1989-02-14 , 5650.0
1989-02-15 , 5880.0
1989-02-16 , 6140.0
1989-02-17 , 6210.0
1989-02-18 , 5930.0
1989-02-19 , 5690.0
1989-02-20 , 5470.0
1989-02-21 , 5360.0
1989-02-22 , 5340.0
1989-02-23 , 5340.0
1989-02-24 , 5780.0
1989-02-25 , 5900.0
1989-02-26 , 6010.0
1989-02-27 , 6060.0
1989-02-28 , 6070.0
1989-03-01 , 5490.0
1989-03-02 , 6150.0
1989-03-03 , 6170.0
1989-03-04 , 6070.0
1989-03-05 , 5930.0
1989-03-06 , 5860.0
1989-03-07 , 5680.0
1989-03-08 , 5640.0
1989-03-09 , 5640.0
1989-03-10 , 5620.0
1989-03-11 , 5600.0
1989-03-12 , 5640.0
1989-03-13 , 5760.0
1989-03-14 , 5790.0
1989-03-15 , 5720.0
1989-03-16 , 5640.0
1989-03-17 , 5640.0
1989-03-18 , 5670.0
1989-03-19 , 5760.0
1989-03-20 , 6120.0
1989-03-21 , 6260.0
1989-03-22 , 6460.0
1989-03-23 , 6460.0
1989-03-24 , 6720.0
1989-03-25 , 6690.0
1989-03-26 , 6500.0
1989-03-27 , 6470.0
1989-03-28 , 6510.0
1989-03-29 , 6580.0
1989-03-30 , 6660.0
1989-03-31 , 6870.0
1989-04-01 , 7110.0
1989-04-02 , 7660.0
1989-04-03 , 7800.0
1989-04-04 , 7890.0
1989-04-05 , 8020.0
1989-04-06 , 8280.0
1989-04-07 , 8670.0
1989-04-08 , 9040.0
1989-04-09 , 9200.0
1989-04-10 , 9360.0
1989-04-11 , 9740.0
1989-04-12 , 10100.0
1989-04-13 , 9910.0
1989-04-14 , 9630.0
1989-04-15 , 9330.0
1989-04-16 , 8950.0
1989-04-17 , 8550.0
1989-04-18 , 9100.0
1989-04-19 , 11000.0
1989-04-20 , 12100.0
1989-04-21 , 12000.0
1989-04-22 , 11300.0
1989-04-23 , 11300.0
1989-04-24 , 9530.0
1989-04-25 , 9830.0
1989-04-26 , 10600.0
1989-04-27 , 13400.0
1989-04-28 , 14700.0
1989-04-29 , 14500.0
1989-04-30 , 13700.0
1989-05-01 , 12600.0
1989-05-02 , 12100.0
1989-05-03 , 13300.0
1989-05-04 , 16700.0
1989-05-05 , 18600.0
1989-05-06 , 18700.0
1989-05-07 , 18000.0
1989-05-08 , 16100.0
1989-05-09 , 14900.0
1989-05-10 , 14100.0
1989-05-11 , 13900.0
1989-05-12 , 13900.0
1989-05-13 , 14800.0
1989-05-14 , 16600.0
1989-05-15 , 17900.0
1989-05-16 , 18000.0
1989-05-17 , 17100.0
1989-05-18 , 15500.0
1989-05-19 , 14500.0
1989-05-20 , 13900.0
1989-05-21 , 14200.0
1989-05-22 , 14900.0
1989-05-23 , 14900.0
1989-05-24 , 14500.0
1989-05-25 , 14300.0
1989-05-26 , 15000.0
1989-05-27 , 17100.0
1989-05-28 , 23300.0
1989-05-29 , 30800.0
1989-05-30 , 34400.0
1989-05-31 , 32100.0
1989-06-01 , 31200.0
1989-06-02 , 30900.0
1989-06-03 , 31000.0
1989-06-04 , 31200.0
1989-06-05 , 31400.0
1989-06-06 , 31500.0
1989-06-07 , 32500.0
1989-06-08 , 33200.0
1989-06-09 , 34500.0
1989-06-10 , 36000.0
1989-06-11 , 35500.0
1989-06-12 , 34900.0
1989-06-13 , 34800.0
1989-06-14 , 34800.0
1989-06-15 , 35900.0
1989-06-16 , 41100.0
1989-06-17 , 47900.0
1989-06-18 , 49000.0
1989-06-19 , 48700.0
1989-06-20 , 48500.0
1989-06-21 , 48600.0
1989-06-22 , 47800.0
1989-06-23 , 47800.0
1989-06-24 , 42700.0
1989-06-25 , 40900.0
1989-06-26 , 39900.0
1989-06-27 , 39800.0
1989-06-28 , 39100.0
1989-06-29 , 39200.0
1989-06-30 , 40700.0
1989-07-01 , 43000.0
1989-07-02 , 45500.0
1989-07-03 , 49400.0
1989-07-04 , 57000.0
1989-07-05 , 62200.0
1989-07-06 , 66000.0
1989-07-07 , 67900.0
1989-07-08 , 69500.0
1989-07-09 , 70100.0
1989-07-10 , 70700.0
1989-07-11 , 69400.0
1989-07-12 , 67500.0
1989-07-13 , 66900.0
1989-07-14 , 66900.0
1989-07-15 , 67400.0
1989-07-16 , 66500.0
1989-07-17 , 65100.0
1989-07-18 , 64500.0
1989-07-19 , 64800.0
1989-07-20 , 63300.0
1989-07-21 , 60500.0
1989-07-22 , 57600.0
1989-07-23 , 57600.0
1989-07-24 , 52500.0
1989-07-25 , 50700.0
1989-07-26 , 49100.0
1989-07-27 , 48200.0
1989-07-28 , 47600.0
1989-07-29 , 51000.0
1989-07-30 , 49300.0
1989-07-31 , 51400.0
1989-08-01 , 54300.0
1989-08-02 , 56200.0
1989-08-03 , 56400.0
1989-08-04 , 54500.0
1989-08-05 , 53100.0
1989-08-06 , 51900.0
1989-08-07 , 51100.0
1989-08-08 , 49700.0
1989-08-09 , 48100.0
1989-08-10 , 47400.0
1989-08-11 , 46900.0
1989-08-12 , 46300.0
1989-08-13 , 45800.0
1989-08-14 , 44600.0
1989-08-15 , 43800.0
1989-08-16 , 43400.0
1989-08-17 , 44100.0
1989-08-18 , 45200.0
1989-08-19 , 45200.0
1989-08-20 , 44700.0
1989-08-21 , 45200.0
1989-08-22 , 47100.0
1989-08-23 , 47100.0
1989-08-24 , 49200.0
1989-08-25 , 50400.0
1989-08-26 , 50200.0
1989-08-27 , 48800.0
1989-08-28 , 47400.0
1989-08-29 , 46900.0
1989-08-30 , 46300.0
1989-08-31 , 45100.0
1989-09-01 , 44100.0
1989-09-02 , 43800.0
1989-09-03 , 43000.0
1989-09-04 , 43700.0
1989-09-05 , 44800.0
1989-09-06 , 47600.0
1989-09-07 , 49700.0
1989-09-08 , 49500.0
1989-09-09 , 49500.0
1989-09-10 , 50300.0
1989-09-11 , 50600.0
1989-09-12 , 50400.0
1989-09-13 , 50100.0
1989-09-14 , 49200.0
1989-09-15 , 48400.0
1989-09-16 , 47600.0
1989-09-17 , 46100.0
1989-09-18 , 45500.0
1989-09-19 , 48700.0
1989-09-20 , 54200.0
1989-09-21 , 56500.0
1989-09-22 , 55900.0
1989-09-23 , 55900.0
1989-09-24 , 54300.0
1989-09-25 , 53400.0
1989-09-26 , 52000.0
1989-09-27 , 51000.0
1989-09-28 , 50900.0
1989-09-29 , 52100.0
1989-09-30 , 55100.0
1989-10-01 , 55400.0
1989-10-02 , 54200.0
1989-10-03 , 51900.0
1989-10-04 , 50800.0
1989-10-05 , 50000.0
1989-10-06 , 48400.0
1989-10-07 , 46500.0
1989-10-08 , 44400.0
1989-10-09 , 42200.0
1989-10-10 , 40700.0
1989-10-11 , 40000.0
1989-10-12 , 39600.0
1989-10-13 , 39900.0
1989-10-14 , 41400.0
1989-10-15 , 42600.0
1989-10-16 , 42500.0
1989-10-17 , 41200.0
1989-10-18 , 39500.0
1989-10-19 , 38000.0
1989-10-20 , 36800.0
1989-10-21 , 35600.0
1989-10-22 , 35100.0
1989-10-23 , 35100.0
1989-10-24 , 35500.0
1989-10-25 , 35800.0
1989-10-26 , 35100.0
1989-10-27 , 33100.0
1989-10-28 , 31000.0
1989-10-29 , 29000.0
1989-10-30 , 27400.0
1989-10-31 , 26600.0
1989-11-01 , 25500.0
1989-11-02 , 24600.0
1989-11-03 , 23900.0
1989-11-04 , 23100.0
1989-11-05 , 22400.0
1989-11-06 , 21900.0
1989-11-07 , 21000.0
1989-11-08 , 20500.0
1989-11-09 , 20200.0
1989-11-10 , 20000.0
1989-11-11 , 19800.0
1989-11-12 , 19800.0
1989-11-13 , 19800.0
1989-11-14 , 19800.0
1989-11-15 , 19000.0
1989-11-16 , 18300.0
1989-11-17 , 17500.0
1989-11-18 , 17600.0
1989-11-19 , 17500.0
1989-11-20 , 17300.0
1989-11-21 , 16900.0
1989-11-22 , 16800.0
1989-11-23 , 16800.0
1989-11-24 , 16800.0
1989-11-25 , 16700.0
1989-11-26 , 16400.0
1989-11-27 , 16000.0
1989-11-28 , 15400.0
1989-11-29 , 14800.0
1989-11-30 , 14300.0
1989-12-01 , 13800.0
1989-12-02 , 13200.0
1989-12-03 , 12900.0
1989-12-04 , 12500.0
1989-12-05 , 12100.0
1989-12-06 , 11600.0
1989-12-07 , 11100.0
1989-12-08 , 10800.0
1989-12-09 , 10600.0
1989-12-10 , 10200.0
1989-12-11 , 9910.0
1989-12-12 , 9750.0
1989-12-13 , 9590.0
1989-12-14 , 9350.0
1989-12-15 , 9100.0
1989-12-16 , 8930.0
1989-12-17 , 8810.0
1989-12-18 , 8620.0
1989-12-19 , 8450.0
1989-12-20 , 8320.0
1989-12-21 , 8150.0
1989-12-22 , 8070.0
1989-12-23 , 8070.0
1989-12-24 , 7810.0
1989-12-25 , 7630.0
1989-12-26 , 7550.0
1989-12-27 , 7460.0
1989-12-28 , 7280.0
1989-12-29 , 7250.0
1989-12-30 , 7210.0
1989-12-31 , 7140.0
1990-01-01 , 7030.0
1990-01-02 , 7030.0
1990-01-03 , 7020.0
1990-01-04 , 7010.0
1990-01-05 , 6930.0
1990-01-06 , 6880.0
1990-01-07 , 6740.0
1990-01-08 , 6560.0
1990-01-09 , 6480.0
1990-01-10 , 6440.0
1990-01-11 , 6410.0
1990-01-12 , 6310.0
1990-01-13 , 6260.0
1990-01-14 , 6220.0
1990-01-15 , 6250.0
1990-01-16 , 6250.0
1990-01-17 , 6260.0
1990-01-18 , 6080.0
1990-01-19 , 6020.0
1990-01-20 , 6000.0
1990-01-21 , 5980.0
1990-01-22 , 5950.0
1990-01-23 , 5950.0
1990-01-24 , 5890.0
1990-01-25 , 5810.0
1990-01-26 , 5730.0
1990-01-27 , 5630.0
1990-01-28 , 5540.0
1990-01-29 , 5450.0
1990-01-30 , 5340.0
1990-01-31 , 5270.0
1990-02-01 , 5220.0
1990-02-02 , 5120.0
1990-02-03 , 5100.0
1990-02-04 , 5090.0
1990-02-05 , 5180.0
1990-02-06 , 5530.0
1990-02-07 , 6070.0
1990-02-08 , 6650.0
1990-02-09 , 6950.0
1990-02-10 , 6940.0
1990-02-11 , 6810.0
1990-02-12 , 6650.0
1990-02-13 , 6410.0
1990-02-14 , 6070.0
1990-02-15 , 5890.0
1990-02-16 , 5760.0
1990-02-17 , 5680.0
1990-02-18 , 5620.0
1990-02-19 , 5560.0
1990-02-20 , 5490.0
1990-02-21 , 5400.0
1990-02-22 , 5430.0
1990-02-23 , 5430.0
1990-02-24 , 5710.0
1990-02-25 , 5980.0
1990-02-26 , 6140.0
1990-02-27 , 6220.0
1990-02-28 , 6240.0
1990-03-01 , 6260.0
1990-03-02 , 6340.0
1990-03-03 , 6370.0
1990-03-04 , 6390.0
1990-03-05 , 6410.0
1990-03-06 , 6270.0
1990-03-07 , 6150.0
1990-03-08 , 6110.0
1990-03-09 , 6080.0
1990-03-10 , 6110.0
1990-03-11 , 6480.0
1990-03-12 , 6780.0
1990-03-13 , 6960.0
1990-03-14 , 6880.0
1990-03-15 , 6780.0
1990-03-16 , 6680.0
1990-03-17 , 6500.0
1990-03-18 , 6330.0
1990-03-19 , 6240.0
1990-03-20 , 6200.0
1990-03-21 , 6070.0
1990-03-22 , 5950.0
1990-03-23 , 5950.0
1990-03-24 , 5870.0
1990-03-25 , 6050.0
1990-03-26 , 6360.0
1990-03-27 , 6470.0
1990-03-28 , 6650.0
1990-03-29 , 6770.0
1990-03-30 , 6970.0
1990-03-31 , 7060.0
1990-04-01 , 7852.0
1990-04-02 , 8391.0
1990-04-03 , 8924.0
1990-04-04 , 9161.0
1990-04-05 , 9121.0
1990-04-06 , 8885.0
1990-04-07 , 8807.0
1990-04-08 , 9042.0
1990-04-09 , 9322.0
1990-04-10 , 9819.0
1990-04-11 , 10429.0
1990-04-12 , 10519.0
1990-04-13 , 10429.0
1990-04-14 , 10429.0
1990-04-15 , 10519.0
1990-04-16 , 10429.0
1990-04-17 , 10700.0
1990-04-18 , 11071.0
1990-04-19 , 11551.0
1990-04-20 , 12048.0
1990-04-21 , 8807.0
1990-04-22 , 10340.0
1990-04-23 , 10340.0
1990-04-24 , 16542.0
1990-04-25 , 16609.0
1990-04-26 , 17499.0
1990-04-27 , 18140.0
1990-04-28 , 18651.0
1990-04-29 , 19328.0
1990-04-30 , 20423.0
1990-05-01 , 20263.0
1990-05-02 , 20105.0
1990-05-03 , 20184.0
1990-05-04 , 20423.0
1990-05-05 , 20503.0
1990-05-06 , 21237.0
1990-05-07 , 21403.0
1990-05-08 , 20423.0
1990-05-09 , 19100.0
1990-05-10 , 18431.0
1990-05-11 , 17640.0
1990-05-12 , 17083.0
1990-05-13 , 16609.0
1990-05-14 , 16542.0
1990-05-15 , 17569.0
1990-05-16 , 19404.0
1990-05-17 , 20105.0
1990-05-18 , 20664.0
1990-05-19 , 21994.0
1990-05-20 , 24128.0
1990-05-21 , 25165.0
1990-05-22 , 25165.0
1990-05-23 , 25165.0
1990-05-24 , 24501.0
1990-05-25 , 23852.0
1990-05-26 , 23308.0
1990-05-27 , 24501.0
1990-05-28 , 26945.0
1990-05-29 , 28086.0
1990-05-30 , 27355.0
1990-05-31 , 26340.0
1990-06-01 , 26844.0
1990-06-02 , 28511.0
1990-06-03 , 31881.0
1990-06-04 , 33323.0
1990-06-05 , 35204.0
1990-06-06 , 37312.0
1990-06-07 , 38684.0
1990-06-08 , 43528.0
1990-06-09 , 46060.0
1990-06-10 , 48719.0
1990-06-11 , 53879.0
1990-06-12 , 57511.0
1990-06-13 , 56342.0
1990-06-14 , 51868.0
1990-06-15 , 46712.0
1990-06-16 , 43067.0
1990-06-17 , 40824.0
1990-06-18 , 39813.0
1990-06-19 , 40244.0
1990-06-20 , 41412.0
1990-06-21 , 43067.0
1990-06-22 , 46060.0
1990-06-23 , 46060.0
1990-06-24 , 58701.0
1990-06-25 , 59304.0
1990-06-26 , 58701.0
1990-06-27 , 57511.0
1990-06-28 , 55574.0
1990-06-29 , 52774.0
1990-06-30 , 50623.0
1990-07-01 , 48889.0
1990-07-02 , 47207.0
1990-07-03 , 46385.0
1990-07-04 , 45575.0
1990-07-05 , 44937.0
1990-07-06 , 46712.0
1990-07-07 , 46877.0
1990-07-08 , 47373.0
1990-07-09 , 50097.0
1990-07-10 , 50976.0
1990-07-11 , 52048.0
1990-07-12 , 52774.0
1990-07-13 , 54252.0
1990-07-14 , 54439.0
1990-07-15 , 55383.0
1990-07-16 , 55957.0
1990-07-17 , 55193.0
1990-07-18 , 54815.0
1990-07-19 , 57905.0
1990-07-20 , 60527.0
1990-07-21 , 62401.0
1990-07-22 , 62401.0
1990-07-23 , 62401.0
1990-07-24 , 62825.0
1990-07-25 , 63250.0
1990-07-26 , 62825.0
1990-07-27 , 63037.0
1990-07-28 , 63250.0
1990-07-29 , 62825.0
1990-07-30 , 62401.0
1990-07-31 , 62401.0
1990-08-01 , 61354.0
1990-08-02 , 60117.0
1990-08-03 , 58103.0
1990-08-04 , 56342.0
1990-08-05 , 53879.0
1990-08-06 , 52410.0
1990-08-07 , 50623.0
1990-08-08 , 49232.0
1990-08-09 , 47207.0
1990-08-10 , 46385.0
1990-08-11 , 46877.0
1990-08-12 , 50447.0
1990-08-13 , 53879.0
1990-08-14 , 54815.0
1990-08-15 , 55004.0
1990-08-16 , 55004.0
1990-08-17 , 50097.0
1990-08-18 , 49404.0
1990-08-19 , 48719.0
1990-08-20 , 47874.0
1990-08-21 , 46549.0
1990-08-22 , 45096.0
1990-08-23 , 45096.0
1990-08-24 , 42914.0
1990-08-25 , 42157.0
1990-08-26 , 45575.0
1990-08-27 , 49750.0
1990-08-28 , 53508.0
1990-08-29 , 54065.0
1990-08-30 , 55004.0
1990-08-31 , 54252.0
1990-09-01 , 52774.0
1990-09-02 , 50272.0
1990-09-03 , 47706.0
1990-09-04 , 45575.0
1990-09-05 , 43837.0
1990-09-06 , 42157.0
1990-09-07 , 41117.0
1990-09-08 , 40244.0
1990-09-09 , 39670.0
1990-09-10 , 41117.0
1990-09-11 , 44149.0
1990-09-12 , 46060.0
1990-09-13 , 46222.0
1990-09-14 , 45415.0
1990-09-15 , 45898.0
1990-09-16 , 45898.0
1990-09-17 , 46877.0
1990-09-18 , 49750.0
1990-09-19 , 52229.0
1990-09-20 , 54065.0
1990-09-21 , 56535.0
1990-09-22 , 57708.0
1990-09-23 , 57708.0
1990-09-24 , 54626.0
1990-09-25 , 54439.0
1990-09-26 , 54815.0
1990-09-27 , 55193.0
1990-09-28 , 53879.0
1990-09-29 , 54252.0
1990-09-30 , 55193.0
1990-10-01 , 55193.0
1990-10-02 , 55193.0
1990-10-03 , 57119.0
1990-10-04 , 58902.0
1990-10-05 , 59507.0
1990-10-06 , 56535.0
1990-10-07 , 53324.0
1990-10-08 , 51689.0
1990-10-09 , 60527.0
1990-10-10 , 59304.0
1990-10-11 , 58302.0
1990-10-12 , 56924.0
1990-10-13 , 54439.0
1990-10-14 , 51868.0
1990-10-15 , 49923.0
1990-10-16 , 48379.0
1990-10-17 , 47042.0
1990-10-18 , 45255.0
1990-10-19 , 42157.0
1990-10-20 , 40244.0
1990-10-21 , 38963.0
1990-10-22 , 37719.0
1990-10-23 , 37719.0
1990-10-24 , 33815.0
1990-10-25 , 31999.0
1990-10-26 , 29820.0
1990-10-27 , 28511.0
1990-10-28 , 26742.0
1990-10-29 , 25747.0
1990-10-30 , 24595.0
1990-10-31 , 23218.0
1990-11-01 , 22252.0
1990-11-02 , 21739.0
1990-11-03 , 20664.0
1990-11-04 , 19869.0
1990-11-05 , 19025.0
1990-11-06 , 18578.0
1990-11-07 , 18285.0
1990-11-08 , 17710.0
1990-11-09 , 17221.0
1990-11-10 , 16811.0
1990-11-11 , 16476.0
1990-11-12 , 16146.0
1990-11-13 , 15823.0
1990-11-14 , 15505.0
1990-11-15 , 15254.0
1990-11-16 , 15007.0
1990-11-17 , 14704.0
1990-11-18 , 14464.0
1990-11-19 , 14170.0
1990-11-20 , 13881.0
1990-11-21 , 13541.0
1990-11-22 , 13319.0
1990-11-23 , 13319.0
1990-11-24 , 12829.0
1990-11-25 , 12670.0
1990-11-26 , 12407.0
1990-11-27 , 11998.0
1990-11-28 , 11405.0
1990-11-29 , 11024.0
1990-11-30 , 10792.0
1990-12-01 , 10655.0
1990-12-02 , 10519.0
1990-12-03 , 10429.0
1990-12-04 , 10208.0
1990-12-05 , 10077.0
1990-12-06 , 9990.0
1990-12-07 , 9905.0
1990-12-08 , 9862.0
1990-12-09 , 9777.0
1990-12-10 , 9693.0
1990-12-11 , 9526.0
1990-12-12 , 9362.0
1990-12-13 , 9281.0
1990-12-14 , 9201.0
1990-12-15 , 9042.0
1990-12-16 , 9002.0
1990-12-17 , 8885.0
1990-12-18 , 8692.0
1990-12-19 , 8616.0
1990-12-20 , 8503.0
1990-12-21 , 8355.0
1990-12-22 , 8245.0
1990-12-23 , 8245.0
1990-12-24 , 8136.0
1990-12-25 , 8064.0
1990-12-26 , 7993.0
1990-12-27 , 7957.0
1990-12-28 , 7852.0
1990-12-29 , 7782.0
1990-12-30 , 7748.0
1990-12-31 , 7679.0
1991-01-01 , 7611.0
1991-01-02 , 7543.0
1991-01-03 , 7509.0
1991-01-04 , 7509.0
1991-01-05 , 7509.0
1991-01-06 , 7476.0
1991-01-07 , 7476.0
1991-01-08 , 7409.0
1991-01-09 , 7376.0
1991-01-10 , 7376.0
1991-01-11 , 7244.0
1991-01-12 , 7180.0
1991-01-13 , 7147.0
1991-01-14 , 7115.0
1991-01-15 , 7019.0
1991-01-16 , 6988.0
1991-01-17 , 6956.0
1991-01-18 , 6863.0
1991-01-19 , 6832.0
1991-01-20 , 6801.0
1991-01-21 , 6770.0
1991-01-22 , 6739.0
1991-01-23 , 6739.0
1991-01-24 , 6618.0
1991-01-25 , 6588.0
1991-01-26 , 6558.0
1991-01-27 , 6770.0
1991-01-28 , 6469.0
1991-01-29 , 6439.0
1991-01-30 , 6410.0
1991-01-31 , 6381.0
1991-02-01 , 6351.0
1991-02-02 , 6322.0
1991-02-03 , 6294.0
1991-02-04 , 6265.0
1991-02-05 , 6294.0
1991-02-06 , 6265.0
1991-02-07 , 6236.0
1991-02-08 , 6236.0
1991-02-09 , 6236.0
1991-02-10 , 6208.0
1991-02-11 , 6236.0
1991-02-12 , 6236.0
1991-02-13 , 6265.0
1991-02-14 , 6236.0
1991-02-15 , 6208.0
1991-02-16 , 6179.0
1991-02-17 , 6094.0
1991-02-18 , 6066.0
1991-02-19 , 6011.0
1991-02-20 , 6011.0
1991-02-21 , 6011.0
1991-02-22 , 6039.0
1991-02-23 , 6039.0
1991-02-24 , 6066.0
1991-02-25 , 6039.0
1991-02-26 , 6011.0
1991-02-27 , 5928.0
1991-02-28 , 5928.0
1991-03-01 , 5901.0
1991-03-02 , 5928.0
1991-03-03 , 6011.0
1991-03-04 , 6039.0
1991-03-05 , 6094.0
1991-03-06 , 6123.0
1991-03-07 , 6208.0
1991-03-08 , 6410.0
1991-03-09 , 6678.0
1991-03-10 , 6832.0
1991-03-11 , 6925.0
1991-03-12 , 6894.0
1991-03-13 , 6770.0
1991-03-14 , 6739.0
1991-03-15 , 6832.0
1991-03-16 , 7115.0
1991-03-17 , 7212.0
1991-03-18 , 7083.0
1991-03-19 , 6988.0
1991-03-20 , 6894.0
1991-03-21 , 6894.0
1991-03-22 , 7051.0
1991-03-23 , 7051.0
1991-03-24 , 7212.0
1991-03-25 , 7376.0
1991-03-26 , 7476.0
1991-03-27 , 7577.0
1991-03-28 , 7713.0
1991-03-29 , 7852.0
1991-03-30 , 8064.0
1991-03-31 , 8172.0
1991-04-01 , 6351.0
1991-04-02 , 6475.0
1991-04-03 , 7172.0
1991-04-04 , 7367.0
1991-04-05 , 7367.0
1991-04-06 , 7302.0
1991-04-07 , 7237.0
1991-04-08 , 7302.0
1991-04-09 , 7629.0
1991-04-10 , 8711.0
1991-04-11 , 9914.0
1991-04-12 , 12403.0
1991-04-13 , 14749.0
1991-04-14 , 16448.0
1991-04-15 , 17234.0
1991-04-16 , 16709.0
1991-04-17 , 16275.0
1991-04-18 , 15846.0
1991-04-19 , 15167.0
1991-04-20 , 14499.0
1991-04-21 , 13196.0
1991-04-22 , 12482.0
1991-04-23 , 12482.0
1991-04-24 , 13356.0
1991-04-25 , 13679.0
1991-04-26 , 12639.0
1991-04-27 , 11936.0
1991-04-28 , 11172.0
1991-04-29 , 10722.0
1991-04-30 , 10426.0
1991-05-01 , 9987.0
1991-05-02 , 10132.0
1991-05-03 , 10871.0
1991-05-04 , 12325.0
1991-05-05 , 14169.0
1991-05-06 , 15167.0
1991-05-07 , 15252.0
1991-05-08 , 18303.0
1991-05-09 , 24471.0
1991-05-10 , 28257.0
1991-05-11 , 31031.0
1991-05-12 , 33338.0
1991-05-13 , 36045.0
1991-05-14 , 37426.0
1991-05-15 , 38008.0
1991-05-16 , 38592.0
1991-05-17 , 39888.0
1991-05-18 , 40960.0
1991-05-19 , 38709.0
1991-05-20 , 35817.0
1991-05-21 , 33560.0
1991-05-22 , 31793.0
1991-05-23 , 31793.0
1991-05-24 , 29632.0
1991-05-25 , 29419.0
1991-05-26 , 29419.0
1991-05-27 , 28047.0
1991-05-28 , 27422.0
1991-05-29 , 28362.0
1991-05-30 , 31357.0
1991-05-31 , 32122.0
1991-06-01 , 31903.0
1991-06-02 , 31139.0
1991-06-03 , 30814.0
1991-06-04 , 30383.0
1991-06-05 , 31466.0
1991-06-06 , 33672.0
1991-06-07 , 36618.0
1991-06-08 , 40244.0
1991-06-09 , 43255.0
1991-06-10 , 42405.0
1991-06-11 , 40244.0
1991-06-12 , 39415.0
1991-06-13 , 39651.0
1991-06-14 , 41560.0
1991-06-15 , 48739.0
1991-06-16 , 50919.0
1991-06-17 , 50403.0
1991-06-18 , 51308.0
1991-06-19 , 54451.0
1991-06-20 , 58472.0
1991-06-21 , 60521.0
1991-06-22 , 60933.0
1991-06-23 , 60933.0
1991-06-24 , 59016.0
1991-06-25 , 56986.0
1991-06-26 , 55647.0
1991-06-27 , 53923.0
1991-06-28 , 52871.0
1991-06-29 , 51827.0
1991-06-30 , 50790.0
1991-07-01 , 50018.0
1991-07-02 , 50661.0
1991-07-03 , 50403.0
1991-07-04 , 51178.0
1991-07-05 , 54716.0
1991-07-06 , 56181.0
1991-07-07 , 58880.0
1991-07-08 , 61209.0
1991-07-09 , 63011.0
1991-07-10 , 65114.0
1991-07-11 , 67812.0
1991-07-12 , 68816.0
1991-07-13 , 70694.0
1991-07-14 , 71276.0
1991-07-15 , 70985.0
1991-07-16 , 69970.0
1991-07-17 , 68529.0
1991-07-18 , 66387.0
1991-07-19 , 62872.0
1991-07-20 , 59698.0
1991-07-21 , 57390.0
1991-07-22 , 56449.0
1991-07-23 , 56449.0
1991-07-24 , 53264.0
1991-07-25 , 51308.0
1991-07-26 , 49889.0
1991-07-27 , 49122.0
1991-07-28 , 48867.0
1991-07-29 , 48867.0
1991-07-30 , 47978.0
1991-07-31 , 47599.0
1991-08-01 , 47347.0
1991-08-02 , 48612.0
1991-08-03 , 51437.0
1991-08-04 , 53264.0
1991-08-05 , 56986.0
1991-08-06 , 58336.0
1991-08-07 , 58608.0
1991-08-08 , 58744.0
1991-08-09 , 58744.0
1991-08-10 , 58880.0
1991-08-11 , 58744.0
1991-08-12 , 58608.0
1991-08-13 , 58744.0
1991-08-14 , 58472.0
1991-08-15 , 57120.0
1991-08-16 , 56852.0
1991-08-17 , 57255.0
1991-08-18 , 58472.0
1991-08-19 , 59016.0
1991-08-20 , 58065.0
1991-08-21 , 56986.0
1991-08-22 , 56047.0
1991-08-23 , 56047.0
1991-08-24 , 53396.0
1991-08-25 , 52479.0
1991-08-26 , 49633.0
1991-08-27 , 48739.0
1991-08-28 , 49505.0
1991-08-29 , 50146.0
1991-08-30 , 49377.0
1991-08-31 , 48867.0
1991-09-01 , 48739.0
1991-09-02 , 49633.0
1991-09-03 , 50146.0
1991-09-04 , 50919.0
1991-09-05 , 52087.0
1991-09-06 , 52087.0
1991-09-07 , 52087.0
1991-09-08 , 52740.0
1991-09-09 , 54319.0
1991-09-10 , 58336.0
1991-09-11 , 58472.0
1991-09-12 , 58472.0
1991-09-13 , 56181.0
1991-09-14 , 53923.0
1991-09-15 , 53133.0
1991-09-16 , 52348.0
1991-09-17 , 52218.0
1991-09-18 , 52087.0
1991-09-19 , 50919.0
1991-09-20 , 49889.0
1991-09-21 , 49377.0
1991-09-22 , 48867.0
1991-09-23 , 48867.0
1991-09-24 , 49889.0
1991-09-25 , 51437.0
1991-09-26 , 50790.0
1991-09-27 , 50146.0
1991-09-28 , 50275.0
1991-09-29 , 50532.0
1991-09-30 , 50919.0
1991-10-01 , 51567.0
1991-10-02 , 51567.0
1991-10-03 , 51178.0
1991-10-04 , 48105.0
1991-10-05 , 45471.0
1991-10-06 , 42768.0
1991-10-07 , 40721.0
1991-10-08 , 39061.0
1991-10-09 , 38008.0
1991-10-10 , 37659.0
1991-10-11 , 37311.0
1991-10-12 , 36389.0
1991-10-13 , 35475.0
1991-10-14 , 35475.0
1991-10-15 , 35134.0
1991-10-16 , 35248.0
1991-10-17 , 36964.0
1991-10-18 , 38709.0
1991-10-19 , 40125.0
1991-10-20 , 39651.0
1991-10-21 , 39061.0
1991-10-22 , 38008.0
1991-10-23 , 38008.0
1991-10-24 , 35817.0
1991-10-25 , 34795.0
1991-10-26 , 33784.0
1991-10-27 , 32562.0
1991-10-28 , 30814.0
1991-10-29 , 28889.0
1991-10-30 , 27526.0
1991-10-31 , 26084.0
1991-11-01 , 25072.0
1991-11-02 , 24173.0
1991-11-03 , 23187.0
1991-11-04 , 22120.0
1991-11-05 , 21355.0
1991-11-06 , 20506.0
1991-11-07 , 19947.0
1991-11-08 , 19302.0
1991-11-09 , 18573.0
1991-11-10 , 18213.0
1991-11-11 , 17677.0
1991-11-12 , 17146.0
1991-11-13 , 16709.0
1991-11-14 , 16275.0
1991-11-15 , 15761.0
1991-11-16 , 15336.0
1991-11-17 , 14999.0
1991-11-18 , 14582.0
1991-11-19 , 14087.0
1991-11-20 , 13842.0
1991-11-21 , 13598.0
1991-11-22 , 13276.0
1991-11-23 , 13276.0
1991-11-24 , 12797.0
1991-11-25 , 12639.0
1991-11-26 , 12247.0
1991-11-27 , 11936.0
1991-11-28 , 11705.0
1991-11-29 , 11552.0
1991-11-30 , 11323.0
1991-12-01 , 11172.0
1991-12-02 , 11021.0
1991-12-03 , 10871.0
1991-12-04 , 10647.0
1991-12-05 , 10499.0
1991-12-06 , 10352.0
1991-12-07 , 10059.0
1991-12-08 , 9987.0
1991-12-09 , 9842.0
1991-12-10 , 9698.0
1991-12-11 , 9483.0
1991-12-12 , 9270.0
1991-12-13 , 9059.0
1991-12-14 , 8919.0
1991-12-15 , 8642.0
1991-12-16 , 8504.0
1991-12-17 , 8436.0
1991-12-18 , 8299.0
1991-12-19 , 8096.0
1991-12-20 , 7962.0
1991-12-21 , 7828.0
1991-12-22 , 7629.0
1991-12-23 , 7629.0
1991-12-24 , 7498.0
1991-12-25 , 7432.0
1991-12-26 , 7432.0
1991-12-27 , 7367.0
1991-12-28 , 7302.0
1991-12-29 , 7237.0
1991-12-30 , 7237.0
1991-12-31 , 7237.0
1992-01-01 , 7237.0
1992-01-02 , 7237.0
1992-01-03 , 7367.0
1992-01-04 , 7367.0
1992-01-05 , 7302.0
1992-01-06 , 7237.0
1992-01-07 , 7108.0
1992-01-08 , 6980.0
1992-01-09 , 6852.0
1992-01-10 , 6663.0
1992-01-11 , 6537.0
1992-01-12 , 6289.0
1992-01-13 , 6166.0
1992-01-14 , 6044.0
1992-01-15 , 5923.0
1992-01-16 , 5803.0
1992-01-17 , 5684.0
1992-01-18 , 5624.0
1992-01-19 , 5565.0
1992-01-20 , 5565.0
1992-01-21 , 5506.0
1992-01-22 , 5506.0
1992-01-23 , 5506.0
1992-01-24 , 5447.0
1992-01-25 , 5389.0
1992-01-26 , 5331.0
1992-01-27 , 5331.0
1992-01-28 , 5273.0
1992-01-29 , 5215.0
1992-01-30 , 5215.0
1992-01-31 , 5157.0
1992-02-01 , 5100.0
1992-02-02 , 5043.0
1992-02-03 , 5043.0
1992-02-04 , 4986.0
1992-02-05 , 4986.0
1992-02-06 , 4929.0
1992-02-07 , 4929.0
1992-02-08 , 4929.0
1992-02-09 , 4986.0
1992-02-10 , 5100.0
1992-02-11 , 5157.0
1992-02-12 , 5215.0
1992-02-13 , 5215.0
1992-02-14 , 5157.0
1992-02-15 , 5100.0
1992-02-16 , 5100.0
1992-02-17 , 4986.0
1992-02-18 , 4986.0
1992-02-19 , 4929.0
1992-02-20 , 4873.0
1992-02-21 , 4761.0
1992-02-22 , 4705.0
1992-02-23 , 4705.0
1992-02-24 , 4650.0
1992-02-25 , 4650.0
1992-02-26 , 4594.0
1992-02-27 , 4594.0
1992-02-28 , 4539.0
1992-02-29 , 4485.0
1992-03-01 , 4485.0
1992-03-02 , 4485.0
1992-03-03 , 4485.0
1992-03-04 , 4539.0
1992-03-05 , 4539.0
1992-03-06 , 4485.0
1992-03-07 , 4430.0
1992-03-08 , 4430.0
1992-03-09 , 4376.0
1992-03-10 , 4376.0
1992-03-11 , 4376.0
1992-03-12 , 4376.0
1992-03-13 , 4539.0
1992-03-14 , 4817.0
1992-03-15 , 5157.0
1992-03-16 , 5565.0
1992-03-17 , 5863.0
1992-03-18 , 6166.0
1992-03-19 , 6289.0
1992-03-20 , 6289.0
1992-03-21 , 6227.0
1992-03-22 , 6289.0
1992-03-23 , 6289.0
1992-03-24 , 7237.0
1992-03-25 , 7828.0
1992-03-26 , 7962.0
1992-03-27 , 7962.0
1992-03-28 , 8504.0
1992-03-29 , 9554.0
1992-03-30 , 10871.0
1992-03-31 , 14169.0
