DATE, DISCHARGE
1966-11-01 , 28.0
1966-12-01 , 46.0
1967-01-01 , 73.0
1967-02-01 , 95.0
1967-03-01 , 57.0
1967-04-01 , 53.0
1967-05-01 , 37.0
1967-06-01 , 45.0
1967-07-01 , 52.0
1967-08-01 , 65.0
1967-09-01 , 57.0
1967-10-01 , 44.0
1967-11-01 , 89.0
1967-12-01 , 111.0
1968-01-01 , 200.0
1968-02-01 , -999.0
1968-03-01 , 164.0
1968-04-01 , 84.0
1968-05-01 , 0.0
1968-06-01 , 33.0
1968-07-01 , -999.0
1968-08-01 , 34.0
1968-09-01 , 24.0
1968-10-01 , 18.0
1968-11-01 , 56.0
1968-12-01 , 100.0
1969-01-01 , 135.0
1969-02-01 , 98.0
1969-03-01 , 44.0
1969-04-01 , 62.0
1969-05-01 , 30.0
1969-06-01 , 33.0
1969-07-01 , 46.0
1969-08-01 , 68.0
1969-09-01 , 44.0
1969-10-01 , 46.0
1969-11-01 , 20.0
1969-12-01 , 27.0
1970-01-01 , 83.0
1970-02-01 , 75.0
1970-03-01 , 93.0
1970-04-01 , 301.0
1970-05-01 , 92.0
1970-06-01 , 59.0
1970-07-01 , 58.0
1970-08-01 , 65.0
1970-09-01 , 48.0
1970-10-01 , 30.0
1970-11-01 , -999.0
1970-12-01 , 27.0
1971-01-01 , 261.0
1971-02-01 , 174.0
1971-03-01 , 113.0
1971-04-01 , 39.0
1971-05-01 , -999.0
1971-06-01 , 56.0
1971-07-01 , 71.0
1971-08-01 , -999.0
1971-09-01 , 44.0
1971-10-01 , -999.0
1971-11-01 , 49.0
1971-12-01 , 80.0
1972-01-01 , 136.0
1972-02-01 , 325.0
1972-03-01 , 213.0
1972-04-01 , 130.0
1972-05-01 , 111.0
1972-06-01 , 73.0
1972-07-01 , 48.0
1972-08-01 , 33.0
1972-09-01 , 24.0
1972-10-01 , -999.0
1972-11-01 , 63.0
1972-12-01 , 82.0
1973-01-01 , 244.0
1973-02-01 , 501.0
1973-03-01 , 229.0
1973-04-01 , 208.0
1973-05-01 , 93.0
1973-06-01 , 39.0
1973-07-01 , 52.0
1973-08-01 , 61.0
1973-09-01 , 63.0
1973-10-01 , 51.0
1973-11-01 , 50.0
1973-12-01 , 48.0
1974-01-01 , 68.0
1974-02-01 , 69.0
1974-03-01 , 67.0
1974-04-01 , 63.0
1974-05-01 , 50.0
1974-06-01 , 66.0
1974-07-01 , -999.0
1974-08-01 , 46.0
1974-09-01 , 52.0
1974-10-01 , 69.0
1974-11-01 , 53.0
1974-12-01 , 55.0
1975-01-01 , 66.0
1975-02-01 , 76.0
1975-03-01 , 397.0
1975-04-01 , 173.0
1975-05-01 , 77.0
1975-06-01 , 77.0
1975-07-01 , 81.0
1975-08-01 , 84.0
1975-09-01 , 81.0
1975-10-01 , 77.0
1975-11-01 , 81.0
1975-12-01 , 131.0
1976-01-01 , 251.0
1976-02-01 , 164.0
1976-03-01 , 145.0
1976-04-01 , 98.0
1976-05-01 , 118.0
1976-06-01 , 78.0
1976-07-01 , 69.0
1976-08-01 , -999.0
1976-09-01 , 34.0
1976-10-01 , 37.0
1976-11-01 , 39.0
1976-12-01 , 44.0
1977-01-01 , 114.0
1977-02-01 , 250.0
1977-03-01 , -999.0
1977-04-01 , 101.0
1977-05-01 , 70.0
1977-06-01 , 42.0
1977-07-01 , -999.0
1977-08-01 , 57.0
1977-09-01 , 64.0
1977-10-01 , 79.0
1977-11-01 , 93.0
1977-12-01 , 95.0
1978-01-01 , 108.0
1978-02-01 , 122.0
1978-03-01 , 151.0
1978-04-01 , 90.0
1978-05-01 , 97.0
1978-06-01 , -999.0
1978-07-01 , 77.0
1978-08-01 , 75.0
1978-09-01 , 68.0
1978-10-01 , 64.0
1978-11-01 , 50.0
1978-12-01 , 33.0
1979-01-01 , 132.0
1979-02-01 , 119.0
1979-03-01 , 127.0
1979-04-01 , 114.0
1979-05-01 , 86.0
1979-06-01 , 77.0
1979-07-01 , -999.0
1979-08-01 , 56.0
1979-09-01 , 41.0
1979-10-01 , 41.0
1979-11-01 , 40.0
1979-12-01 , 63.0
1980-01-01 , 337.0
1980-02-01 , 286.0
1980-03-01 , 151.0
1980-04-01 , 81.0
1980-05-01 , -999.0
1980-06-01 , 63.0
1980-07-01 , -999.0
1980-08-01 , 43.0
1980-09-01 , 47.0
1980-10-01 , -999.0
1980-11-01 , 86.0
1980-12-01 , 77.0
1981-01-01 , 77.0
1981-02-01 , 94.0
1981-03-01 , 129.0
1981-04-01 , 82.0
1981-05-01 , 49.0
1981-06-01 , 43.0
1981-07-01 , 50.0
1981-08-01 , 46.0
1981-09-01 , -999.0
1981-10-01 , -999.0
1981-11-01 , 44.0
1981-12-01 , 37.0
1982-01-01 , 49.0
1982-02-01 , 92.0
1982-03-01 , 271.0
1982-04-01 , 277.0
1982-05-01 , -999.0
1982-06-01 , 151.0
1982-07-01 , -999.0
1982-08-01 , 127.0
1982-09-01 , 116.0
1982-10-01 , 131.0
