,Flood start,Flood end,Days,Mean discharge (cms),Max discharge (cms)
0,01-03-1922,01-05-1922,61.0,3384.5,3811.0
1,01-10-1922,01-11-1922,31.0,2210.0,2210.0
2,01-02-1923,01-03-1923,28.0,2394.0,2394.0
3,01-10-1923,01-01-1924,92.0,3113.3333333333335,3500.0
4,01-04-1924,01-05-1924,30.0,2375.0,2375.0
5,01-09-1924,01-10-1924,30.0,2294.0,2294.0
6,01-12-1925,01-02-1926,62.0,2574.0,2825.0
7,01-04-1926,01-06-1926,61.0,2666.0,2754.0
8,01-10-1926,01-11-1926,31.0,3922.0,3922.0
9,01-02-1927,01-04-1927,59.0,3059.0,3342.0
10,01-08-1927,01-09-1927,31.0,2225.0,2225.0
11,01-01-1928,01-02-1928,31.0,2674.0,2674.0
12,01-03-1928,01-04-1928,31.0,2473.0,2473.0
13,01-09-1928,01-12-1928,91.0,2603.3333333333335,3144.0
14,01-12-1929,01-01-1930,31.0,2287.0,2287.0
15,01-04-1930,01-07-1930,91.0,3026.0,3427.0
16,01-09-1930,01-11-1930,61.0,2611.5,2778.0
17,01-02-1931,01-03-1931,28.0,3670.0,3670.0
18,01-08-1931,01-09-1931,31.0,2740.0,2740.0
19,01-03-1932,01-05-1932,61.0,2801.0,3426.0
20,01-06-1932,01-07-1932,30.0,2169.0,2169.0
21,01-09-1933,01-11-1933,61.0,2424.5,2677.0
22,01-02-1934,01-05-1934,89.0,2205.0,2326.0
23,01-02-1935,01-04-1935,59.0,2252.5,2317.0
24,01-05-1935,01-06-1935,31.0,2219.0,2219.0
25,01-09-1935,01-02-1936,153.0,4022.0,5077.0
26,01-03-1936,01-04-1936,31.0,2447.0,2447.0
27,01-05-1936,01-07-1936,61.0,2362.5,2455.0
28,01-01-1937,01-06-1937,151.0,2869.4,4181.0
29,01-12-1938,01-01-1939,31.0,2553.0,2553.0
30,01-03-1939,01-05-1939,61.0,2570.5,2767.0
31,01-09-1939,01-12-1939,91.0,2692.6666666666665,3752.0
32,01-05-1940,01-06-1940,31.0,2185.0,2185.0
33,01-10-1940,01-11-1940,31.0,2665.0,2665.0
34,01-12-1940,01-06-1941,182.0,3019.1666666666665,4460.0
35,01-02-1942,01-03-1942,28.0,2384.0,2384.0
36,01-11-1943,01-12-1943,30.0,2177.0,2177.0
37,01-10-1944,01-12-1944,61.0,4044.5,4113.0
38,01-01-1945,01-02-1945,31.0,3221.0,3221.0
39,01-05-1946,01-06-1946,31.0,2419.0,2419.0
40,01-02-1947,01-04-1947,59.0,3066.5,3845.0
41,01-12-1947,01-02-1948,62.0,2908.0,3223.0
42,01-04-1948,01-05-1948,30.0,2104.0,2104.0
43,01-01-1950,01-02-1950,31.0,2310.0,2310.0
44,01-10-1950,01-07-1951,273.0,2727.0,3326.0
45,01-10-1951,01-11-1951,31.0,4854.0,4854.0
46,01-02-1952,01-05-1952,90.0,2381.3333333333335,2836.0
47,01-10-1952,01-12-1952,61.0,3279.5,3393.0
48,01-11-1954,01-02-1955,92.0,4236.0,5045.0
49,01-05-1955,01-06-1955,31.0,2587.0,2587.0
50,01-03-1956,01-04-1956,31.0,2178.0,2178.0
51,01-08-1956,01-09-1956,31.0,2453.0,2453.0
52,01-01-1957,01-03-1957,59.0,2512.0,2589.0
53,01-05-1957,01-06-1957,31.0,2479.0,2479.0
54,01-01-1958,01-03-1958,59.0,2248.0,2324.0
55,01-09-1958,01-10-1958,30.0,2260.0,2260.0
56,01-11-1958,01-01-1959,61.0,2516.5,2666.0
57,01-02-1959,01-03-1959,28.0,2266.0,2266.0
58,01-11-1959,01-03-1960,121.0,2795.25,3624.0
59,01-08-1960,01-02-1961,184.0,3105.6666666666665,4893.0
60,01-11-1961,01-01-1962,61.0,2559.0,2679.0
61,01-02-1962,01-04-1962,59.0,2729.0,3031.0
62,01-03-1963,01-04-1963,31.0,2800.0,2800.0
63,01-05-1963,01-06-1963,31.0,3017.0,3017.0
64,01-10-1963,01-11-1963,31.0,3626.0,3626.0
65,01-02-1964,01-04-1964,60.0,2549.5,2900.0
66,01-08-1965,01-09-1965,31.0,2159.0,2159.0
67,01-11-1965,01-02-1966,92.0,3494.6666666666665,3845.0
68,01-03-1966,01-05-1966,61.0,2403.0,2439.0
69,01-11-1966,01-01-1967,61.0,2212.5,2323.0
70,01-02-1967,01-03-1967,28.0,2482.0,2482.0
71,01-12-1967,01-02-1968,62.0,2387.5,2451.0
72,01-08-1968,01-09-1968,31.0,2526.0,2526.0
73,01-10-1968,01-11-1968,31.0,2155.0,2155.0
74,01-12-1968,01-01-1969,31.0,2343.0,2343.0
75,01-02-1969,01-03-1969,28.0,2727.0,2727.0
76,01-04-1969,01-05-1969,30.0,2519.0,2519.0
77,01-12-1969,01-03-1970,90.0,2707.3333333333335,3199.0
78,01-04-1970,01-06-1970,61.0,2423.0,2563.0
79,01-01-1972,01-02-1972,31.0,2534.0,2534.0
80,01-01-1974,01-02-1974,31.0,2280.0,2280.0
81,01-11-1974,01-12-1974,30.0,2360.0,2360.0
82,01-10-1976,01-03-1977,151.0,2906.0,4440.0
83,01-04-1977,01-06-1977,61.0,2780.0,3230.0
84,01-11-1977,01-05-1978,181.0,2890.0,3616.0
85,01-01-1979,01-03-1979,59.0,2985.0,3332.0
86,01-01-1980,01-02-1980,31.0,2928.621,2928.621
87,01-06-1980,01-07-1980,30.0,2375.806,2375.806
88,01-12-1980,01-01-1981,31.0,2231.065,2231.065
89,01-02-1981,01-04-1981,59.0,2433.5429999999997,2667.419
90,01-09-1981,01-10-1981,30.0,2418.71,2418.71
91,01-11-1981,01-01-1982,61.0,3470.968,3475.484
92,01-09-1982,01-12-1982,91.0,2943.774,3795.161
93,01-02-1983,01-06-1983,120.0,3368.4625,4692.903
94,01-01-1984,01-02-1984,31.0,2655.172,2655.172
95,01-01-1985,01-03-1985,59.0,2144.9595,2147.419
96,01-04-1985,01-05-1985,30.0,2742.258,2742.258
97,01-03-1986,01-05-1986,61.0,3520.285,3787.667
98,01-03-1987,01-04-1987,31.0,2552.0,2552.0
99,01-05-1987,01-07-1987,61.0,2510.6075,2887.667
100,01-09-1987,01-10-1987,30.0,2270.0,2270.0
101,01-12-1987,01-05-1988,152.0,2691.6894,2938.276
102,01-09-1988,01-10-1988,30.0,2291.774,2291.774
103,01-03-1989,01-04-1989,31.0,2560.667,2560.667
104,01-01-1990,01-02-1990,31.0,2461.179,2461.179
105,01-12-1990,01-01-1991,31.0,2222.903,2222.903
106,01-02-1991,01-03-1991,28.0,2357.097,2357.097
107,01-10-1992,01-12-1992,61.0,3001.14,3440.667
108,01-08-1993,01-10-1993,61.0,3485.729,4802.258
109,01-11-1993,01-02-1994,92.0,3190.5643333333333,4667.419
110,01-03-1994,01-05-1994,61.0,2278.355,2298.0
111,01-10-1994,01-11-1994,31.0,2959.667,2959.667
112,01-12-1994,01-06-1995,182.0,2811.708,3748.464
113,01-12-1995,01-01-1996,31.0,3323.226,3323.226
114,01-10-1996,01-01-1997,92.0,3190.0873333333334,3629.645
115,01-11-1997,01-01-1998,61.0,2448.5805,2453.613
116,01-03-1998,01-04-1998,31.0,2193.866,2193.866
117,01-10-1998,01-11-1998,31.0,2114.016,2114.016
118,01-01-1999,01-05-1999,120.0,2744.228,2960.137
