,Flood start,Flood end,Days,Mean discharge (cms),Max discharge (cms)
0,01-04-1922,01-05-1922,30.0,9970.0,9970.0
1,01-03-1923,01-04-1923,31.0,10452.0,10452.0
2,01-04-1924,01-06-1924,61.0,11148.5,11212.0
3,01-07-1926,01-08-1926,31.0,11709.0,11709.0
4,01-04-1932,01-06-1932,61.0,10823.5,11794.0
5,01-03-1937,01-06-1937,92.0,11254.333333333334,12325.0
6,01-03-1940,01-07-1940,122.0,12378.5,12954.0
7,01-02-1941,01-07-1941,150.0,11157.4,11828.0
8,01-03-1942,01-06-1942,92.0,12514.333333333334,13387.0
9,01-04-1944,01-06-1944,61.0,10373.5,10838.0
10,01-03-1947,01-04-1947,31.0,10553.0,10553.0
11,01-12-1952,01-01-1953,31.0,9894.0,9894.0
12,01-05-1954,01-06-1954,31.0,9948.0,9948.0
13,01-02-1955,01-05-1955,89.0,10817.0,11812.0
14,01-07-1955,01-08-1955,31.0,9840.0,9840.0
15,01-03-1956,01-06-1956,92.0,10995.333333333334,11118.0
16,01-03-1958,01-05-1958,61.0,10962.5,11352.0
17,01-03-1962,01-05-1962,61.0,11690.0,12360.0
18,01-03-1963,01-04-1963,31.0,10640.0,10640.0
19,01-03-1965,01-07-1965,122.0,11705.0,12760.0
20,01-02-1966,01-03-1966,28.0,10550.0,10550.0
21,01-01-1967,01-02-1967,31.0,10659.0,10659.0
22,01-03-1967,01-06-1967,92.0,10996.666666666666,11696.0
23,01-02-1969,01-04-1969,59.0,11130.0,11400.0
24,01-06-1969,01-07-1969,30.0,10100.0,10100.0
25,01-01-1970,01-07-1970,181.0,12481.666666666666,14520.0
26,01-04-1973,01-05-1973,30.0,10190.0,10190.0
27,01-10-1974,01-11-1974,31.0,10890.0,10890.0
28,01-04-1975,01-07-1975,91.0,10853.333333333334,11870.0
29,01-02-1977,01-05-1977,89.0,10780.0,11720.0
30,01-04-1978,01-06-1978,61.0,10165.0,10300.0
31,01-03-1979,01-05-1979,61.0,9915.0,10100.0
32,01-04-1980,01-06-1980,61.0,11500.0,11900.0
33,01-03-1981,01-05-1981,61.0,11265.0,12800.0
34,01-12-1981,01-01-1982,31.0,10900.0,10900.0
35,01-04-1985,01-05-1985,30.0,9870.0,9870.0
36,01-03-1986,01-04-1986,31.0,10300.0,10300.0
37,01-04-1987,01-06-1987,61.0,10450.0,10500.0
38,01-03-1988,01-04-1988,31.0,12600.0,12600.0
39,01-05-1991,01-06-1991,31.0,10300.0,10300.0
40,01-03-1996,01-05-1996,61.0,10095.0,10300.0
41,01-02-1999,01-06-1999,120.0,11025.0,11600.0
42,01-03-2000,01-05-2000,61.0,10950.0,11600.0
