,Flood start,Flood end,Days,Mean discharge (cms),Max discharge (cms)
0,01-12-1951,01-01-1952,31.0,1747.0,1747.0
1,01-01-1953,01-03-1953,59.0,2102.0,2190.0
2,01-12-1953,01-02-1954,62.0,1999.0,2124.0
3,01-12-1954,01-01-1955,31.0,1879.0,1879.0
4,01-12-1955,01-01-1956,31.0,2340.0,2340.0
5,01-12-1960,01-01-1961,31.0,1857.0,1857.0
6,01-01-1963,01-02-1963,31.0,1522.0,1522.0
