,Flood start,Flood end,Days,Mean discharge (cms),Max discharge (cms)
0,01-12-1953,01-01-1954,31.0,468.0,468.0
1,01-02-1954,01-03-1954,28.0,398.0,398.0
2,01-01-1957,01-02-1957,31.0,667.0,667.0
3,01-12-1961,01-02-1962,62.0,458.0,458.0
4,01-02-1968,01-03-1968,29.0,428.0,428.0
5,01-01-1969,01-02-1969,31.0,517.0,517.0
6,01-01-1970,01-02-1970,31.0,404.0,404.0
7,01-12-1970,01-02-1971,62.0,579.5,580.0
8,01-01-1972,01-02-1972,31.0,483.0,483.0
9,01-02-1974,01-03-1974,28.0,374.0,374.0
10,01-02-1975,01-03-1975,28.0,546.0,546.0
11,01-12-1975,01-03-1976,91.0,492.3333333333333,546.0
12,01-01-1977,01-03-1977,59.0,484.5,585.0
13,01-01-1979,01-04-1979,90.0,522.6666666666666,625.0
14,01-12-1979,01-04-1980,122.0,483.25,703.0
15,01-02-1983,01-03-1983,28.0,362.0,362.0
