,Flood start,Flood end,Days,Mean discharge (cms),Max discharge (cms)
0,01-04-1907,01-07-1907,91.0,128.33333333333334,139.0
1,01-04-1908,01-05-1908,30.0,104.0,104.0
2,01-04-1909,01-05-1909,30.0,107.0,107.0
3,01-03-1912,01-06-1912,92.0,137.03333282470703,182.0
4,01-09-1912,01-10-1912,30.0,101.0,101.0
5,01-03-1913,01-08-1913,153.0,154.23999938964843,288.0
6,01-09-1913,01-10-1913,30.0,293.0,293.0
7,01-04-1914,01-05-1914,30.0,152.0,152.0
8,01-03-1916,01-04-1916,31.0,115.0,115.0
9,01-04-1917,01-05-1917,30.0,172.0,172.0
10,01-04-1920,01-05-1920,30.0,195.0,195.0
11,01-03-1921,01-05-1921,61.0,114.0,124.0
12,01-06-1921,01-07-1921,30.0,104.0,104.0
13,01-03-1922,01-06-1922,92.0,263.6666666666667,432.0
14,01-03-1923,01-07-1923,122.0,197.0,412.0
15,01-04-1924,01-05-1924,30.0,95.30000305175781,95.30000305175781
16,01-03-1925,01-05-1925,61.0,184.5,231.0
17,01-03-1927,01-06-1927,92.0,222.33333333333334,369.0
18,01-03-1928,01-05-1928,61.0,124.5,148.0
19,01-06-1935,01-07-1935,30.0,95.5,95.5
20,01-03-1936,01-05-1936,61.0,136.0,150.0
21,01-03-1942,01-04-1942,31.0,112.0,112.0
22,01-03-1943,01-04-1943,31.0,141.0,141.0
23,01-03-1946,01-04-1946,31.0,119.0,119.0
24,01-03-1947,01-05-1947,61.0,141.0,176.0
25,01-06-1947,01-07-1947,30.0,192.0,192.0
26,01-04-1948,01-06-1948,61.0,227.0,349.0
27,01-04-1950,01-05-1950,30.0,101.0,101.0
28,01-03-1951,01-05-1951,61.0,127.5,132.0
29,01-03-1953,01-04-1953,31.0,105.0,105.0
30,01-05-1953,01-07-1953,61.0,113.5,115.0
31,01-04-1954,01-07-1954,91.0,187.33333333333334,262.0
32,01-03-1955,01-07-1955,122.0,242.0,372.0
33,01-03-1956,01-07-1956,122.0,223.25,369.0
34,01-03-1957,01-05-1957,61.0,162.0,209.0
35,01-03-1960,01-05-1960,61.0,123.0,131.0
36,01-03-1965,01-04-1965,31.0,102.0,102.0
37,01-03-1966,01-05-1966,61.0,104.5,112.0
38,01-04-1967,01-05-1967,30.0,123.0,123.0
39,01-03-1969,01-04-1969,31.0,170.0,170.0
40,01-04-1970,01-05-1970,30.0,180.0,180.0
41,01-03-1972,01-05-1972,61.0,125.5,131.0
42,01-03-1974,01-06-1974,92.0,178.33333333333334,210.0
43,01-04-1975,01-06-1975,61.0,161.0,196.0
44,01-03-1976,01-07-1976,122.0,195.0,335.0
45,01-03-1979,01-06-1979,92.0,146.66666666666666,214.0
46,01-03-1983,01-05-1983,61.0,98.0,98.5
