River,Data,Source,Madagascar,Qbf - Estimated (cms),Qbf - Reported (cms),Qbf Choice,Average Flood Qbf (cms),Max Flood Qbf (cms),Flood Qbf st.dev,Tscour (months),Tscour st.dev,Tscour std. err.,Flood count
"ORINOCO,_RIO",DAILY,GRDC,no,68640,38000,Reported,56422.04,87860.0,11020.26,4.17,1.07,0.13,70
"PARANA,_RIO",DAILY,GRDC,no,21896,16000,Reported,19355.16,31930.0,2749.43,3.75,5.48,0.6,84
BRAHMAPUTRA_RIVER,DAILY,GRDC,no,67200,35000,Reported,49366.95,98300.0,9766.49,1.46,1.72,0.42,17
RHONE,DAILY,GRDC,no,4660,2100,Reported,2919.52,8090.0,764.88,0.34,0.4,0.03,154
DANUBE_RIVER,DAILY,GRDC,no,10700,9700,Reported,11229.94,15900.0,1256.56,1.1,1.24,0.12,105
MISSISSIPPI_RIVER,DAILY,GRDC,no,38228,25000,Reported,32714.05,65411.81,6426.51,1.01,0.97,0.06,233
AMAZON_RIVER,DAILY,GRDC,no,237100,200000,Reported,227383.79,280000.0,17118.38,3.78,1.19,0.18,46
RHINE_RIVER,DAILY,GRDC,no,6297,3500,Reported,4756.64,13000.0,1231.8,0.35,0.33,0.02,426
ASSINIBOINE_RIVER,DAILY,GRDC,no,190,False,Estimated,336.45,1040.0,179.15,0.81,0.91,0.17,29
